[gd_scene load_steps=9 format=2]

[ext_resource path="res://scenes2/aaa.dae" type="PackedScene" id=1]
[ext_resource path="res://scenes2/Material_005.material" type="Material" id=2]
[ext_resource path="res://scenes2/Material_020.material" type="Material" id=3]
[ext_resource path="res://scenes2/Material_030.material" type="Material" id=4]
[ext_resource path="res://scenes2/Material_004.material" type="Material" id=5]
[ext_resource path="res://scenes2/Material_028.material" type="Material" id=6]
[ext_resource path="res://scenes2/Material_001.material" type="Material" id=7]
[ext_resource path="res://scenes2/Material_010.material" type="Material" id=8]


[node name="aaa" instance=ExtResource( 1 )]
transform = Transform( 1, 0, 0, 0, 1, 0, 0, 0, 1, 0, 1.08455, 0 )

[node name="BezierCurve006" parent="." index="2009"]
material/0 = ExtResource( 8 )

[node name="BezierCurve004" parent="." index="2010"]
transform = Transform( 1, 0, 0, 0, 1, 0, 0, 0, 1, -2.57526, -0.107792, 1.58568 )
material/0 = ExtResource( 6 )

[node name="Sphere020" parent="." index="2017"]
material/0 = ExtResource( 3 )

[node name="Sphere001" parent="." index="2018"]
material/0 = ExtResource( 7 )

[node name="Sphere002" parent="." index="2019"]
material/0 = ExtResource( 4 )

[node name="Icosphere" parent="." index="2020"]
transform = Transform( 1.14412, 0, 0, 0, 1.14412, 0, 0, 0, 1.14412, -0.389436, -0.00527072, -0.611288 )
material/0 = ExtResource( 5 )

[node name="Sphere" parent="." index="2023"]
material/0 = ExtResource( 3 )

[node name="Sphere005" parent="." index="2028"]
material/0 = ExtResource( 2 )
