[gd_scene load_steps=5 format=2]

[ext_resource path="res://assets/gun/Couleur 3.material" type="Material" id=1]
[ext_resource path="res://assets/gun/Couleur 1.material" type="Material" id=2]
[ext_resource path="res://assets/gun/Couleur 2.material" type="Material" id=3]
[ext_resource path="res://assets/gun/pistol.dae" type="PackedScene" id=4]

[node name="pistol" instance=ExtResource( 4 )]

[node name="Pistolet à eau" parent="." index="0"]
material/0 = ExtResource( 2 )
material/1 = ExtResource( 3 )
material/2 = ExtResource( 1 )
