[gd_scene load_steps=3 format=2]

[ext_resource path="res://assets/Final_Assets/gun/Iphone.dae" type="PackedScene" id=1]

[sub_resource type="SpatialMaterial" id=1]
albedo_color = Color( 0.0745098, 0.258824, 0.607843, 1 )
clearcoat_enabled = true
clearcoat = 1.0
clearcoat_gloss = 1.0

[node name="Iphone" instance=ExtResource( 1 )]

[node name="Circle013" parent="." index="11"]
material/0 = SubResource( 1 )
