[gd_scene load_steps=17 format=2]

[ext_resource path="res://assets/Final_Assets/research/researchroomfinal.dae" type="PackedScene" id=1]
[ext_resource path="res://assets/Final_Assets/research/Monitor_01_Complete_Monitor_01_Decals_Base.jpg" type="Texture" id=2]
[ext_resource path="res://assets/Final_Assets/research/Monitor_01_Complete_Monitor_01_BaseColor.jpg" type="Texture" id=3]
[ext_resource path="res://scripts/researchtask.gd" type="Script" id=4]

[sub_resource type="ConcavePolygonShape" id=1]
data = PoolVector3Array( -1, 0, -1, 1, 0, -1, 1, -0.2, -1, 1, 0, -1, -1, 0, -1, -1, 0, -1, 1, 0, 1, 1, 0, -1, 1, 0, -1, 1, 0, 1, 1, 0, 1, 1, 0, 1, 1, 0, 1, 1, 0, -1, 1, 0, -1, -1, 0, 1, 1, 0, 1, 1, 0, 1, 1, 0, 1, 1, 0, 1, 1, 5, 1, 1, 0, 1, 1, 0, -1, 0.9667, 0, -1, -1, 5, 1, -1, 0, 1, -1, 0, 0.96, -1, 5, -1, -1, 0, -1, -0.9667, 0, -1, 0.9667, 0, 1, 0.9667, 0, -1, 0.9667, 5, -1, 1, 0, -1, 1, 5, -1, 0.9667, 5, -1, 1, 5, 1, 1, 0, 1, 0.9667, 0, 1, 1, 5, -1, 1, 5, 1, 0.9667, 5, 1, -0.0219, 0, 1, -0.9667, 0, 1, -0.9667, 0, 0.96, -1, 0, 1, 1, 0, 1, 1, 0, 0.96, 1, 0, 1, 1, 5, 1, 1, 5, 0.96, 1.8333, 0, 1, 1.8333, 5, 1, 1.8333, 5, 1.04, -0.9667, 0, -1, -0.9667, 0, 1, -0.9667, 5, 1, -1, 5, 1, -1, 5, -1, -0.9667, 5, -1, -1, 0, -1, -1, 0, 1, -0.9667, 0, 1, -1, 0, 1, -1, 5, 1, -0.9667, 5, 1, -1, 5, -1, -1, 5, 1, -1, 0, 1, 1, 5, 1, 1, 5, -1, 1, 0, -1, 1.8333, 0, 2.2, 1.8333, 5, 2.2, 1.8, 5, 2.2, 1.8307, 0, 2.2, -0.0219, 0, 2.2, -0.0219, 0, 2.16, 1, 0, 1, -0.0191, 0, 1, -0.0191, -0.005, 1, 1.8484, 0, 1, 1, 0, 1, 1, 0.028, 1, 1, 5, 1.04, 1, 0, 1.04, 1.8333, 0, 1.04, 1.8333, 5, 1, 1, 5, 1, 1, 5, 1.04, 1, 0, 1, 1.8333, 0, 1, 1.8333, 0, 1.04, 1, 5, 1, 1, 0, 1, 1, 0, 1.04, 1.8, 5, 1, 1.8, 0, 1, 1.8, 0, 2.2, 1.8333, 5, 1, 1.8333, 0, 1, 1.8, 0, 1, 1.8333, 0, 1, 1.8333, 0, 2.2, 1.8, 0, 2.2, 1.8333, 5, 2.2, 1.8333, 5, 1, 1.8, 5, 1, -0.0219, 0, 2.16, -0.0219, 5, 2.16, 1.8307, 5, 2.16, 1.8307, 5, 2.2, 1.8307, 0, 2.2, 1.8307, 0, 2.16, -0.0219, 0, 2.2, -0.0219, 5, 2.2, -0.0219, 5, 2.16, -0.0219, 5, 2.2, 1.8307, 5, 2.2, 1.8307, 5, 2.16, -0.0219, 0, 2.2, -0.0219, 0, 1, 0.0114, 0, 1, -0.0219, 5, 2.2, -0.0219, 0, 2.2, 0.0114, 0, 2.2, -0.0219, 0, 1, -0.0219, 5, 1, 0.0114, 5, 1, -0.9667, 0, 0.96, -0.9667, 5, 0.96, -0.0219, 5, 0.96, -0.9667, 0, 1, -0.9667, 5, 1, -0.9667, 5, 0.96, -0.9667, 5, 1, -0.0219, 5, 1, -0.0219, 5, 0.96, -0.0219, 5, 1, -0.0219, 0, 1, -0.0219, 0, 0.96, 1, -0.005, 2.2, 1, -0.005, 1, -0.0191, -0.005, 1, 1, 0, 2.2, 1, 0, 1, 1, -0.005, 1, -0.0191, 0, 1, -0.0191, 0, 2.2, -0.0191, -0.005, 2.2, -0.0191, 0, 2.2, 1, 0, 2.2, 1, -0.005, 2.2, -1, -0.2, 1, -1, -0.2, -1, -1, -0.1227, -1, 1, 0, 1, -1, 0, 1, -1, -0.2, 1, 1, 0, -1, 1, 0, 1, 1, -0.2, 1, -1, 0, 1, -1, 0, -1, -1, -0.2, -1, 1, 0.028, 1, 1, 0.028, 2.2, 1.8484, 0.028, 2.2, 1.8484, 0, 2.2, 1.8484, 0, 1, 1.8484, 0.028, 1, 1, 0, 2.2, 1.8484, 0, 2.2, 1.8484, 0.028, 2.2, 1, 0, 1, 1, 0, 2.2, 1, 0.028, 2.2, 1.8333, 5, 1, 1.8333, 5, 2.2, 1.8333, 0, 2.2, 1, 5, 1, 1.8333, 5, 1, 1.8333, 0, 1, 1.8307, 5, 2.2, -0.0219, 5, 2.2, -0.0219, 0, 2.2, -0.0219, 5, 1, -0.9667, 5, 1, -0.9667, 0, 1, -0.0219, 5, 0.96, -0.0219, 0, 0.96, 0.0077, 0.0148, 0.9993, 0.9667, 0, 1, 1.0043, -0.0304, 1.0343, 1.0043, 4.9696, 1.0343, 0.149, 5, -1, -1, 5, -1, -1, 5, -0.96, -1, 5, -0.96, -1, 0, -0.96, 0.149, 0, -0.96, -1, 5, -1, -1, 0, -1, -1, 0, -0.96, 0.149, 0, -1, 0.149, 5, -1, 0.149, 5, -0.96, -1, 0, -1, 0.149, 0, -1, 0.149, 0, -0.96, -1, 5, -1, 0.149, 5, -1, 0.149, 0, -1, -1, 0, -1, 1, -0.2, -1, -1, -0.2, -1, 1, 0, -1, -1, 0, -1, 1, 0, -1, 1, 0, 1, 1, 0, -1, 1, 0, 1, 1, 0, 1, 1, 0, 1, 1, 0, 1, 1, 0, 1, 1, 0, -1, 1, 0, 1, -1, 0, 1, 1, 0, 1, -1, 0, 1, 1, 0, 1, 1, 5, 1, 1, 5, 1, 1, 0, 1, 0.9667, 0, -1, 0.9667, 0, 1, -1, 5, 1, -1, 0, 0.96, -1, 5, 0.96, -1, 5, -1, -0.9667, 0, -1, -0.9667, 5, -1, 0.9667, 0, 1, 0.9667, 5, -1, 0.9667, 5, 1, 1, 0, -1, 0.9667, 5, -1, 0.9667, 0, -1, 1, 5, 1, 0.9667, 0, 1, 0.9667, 5, 1, 1, 5, -1, 0.9667, 5, 1, 0.9667, 5, -1, -0.0219, 0, 1, -0.9667, 0, 0.96, -0.0219, 0, 0.96, -1, 0, 1, 1, 0, 0.96, -1, 0, 0.96, 1, 0, 1, 1, 5, 0.96, 1, 0, 0.96, 1.8333, 0, 1, 1.8333, 5, 1.04, 1.8333, 0, 1.04, -0.9667, 0, -1, -0.9667, 5, 1, -0.9667, 5, -1, -1, 5, 1, -0.9667, 5, -1, -0.9667, 5, 1, -1, 0, -1, -0.9667, 0, 1, -0.9667, 0, -1, -1, 0, 1, -0.9667, 5, 1, -0.9667, 0, 1, -1, 5, -1, -1, 0, 1, -1, 0, -1, 1, 5, 1, 1, 0, -1, 1, 0, 1, 1.8333, 0, 2.2, 1.8, 5, 2.2, 1.8, 0, 2.2, 1.8307, 0, 2.2, -0.0219, 0, 2.16, 1.8307, 0, 2.16, 1, 0, 1, -0.0191, -0.005, 1, 1, -0.005, 1, 1.8484, 0, 1, 1, 0.028, 1, 1.8484, 0.028, 1, 1, 5, 1.04, 1.8333, 0, 1.04, 1.8333, 5, 1.04, 1.8333, 5, 1, 1, 5, 1.04, 1.8333, 5, 1.04, 1, 0, 1, 1.8333, 0, 1.04, 1, 0, 1.04, 1, 5, 1, 1, 0, 1.04, 1, 5, 1.04, 1.8, 5, 1, 1.8, 0, 2.2, 1.8, 5, 2.2, 1.8333, 5, 1, 1.8, 0, 1, 1.8, 5, 1, 1.8333, 0, 1, 1.8, 0, 2.2, 1.8, 0, 1, 1.8333, 5, 2.2, 1.8, 5, 1, 1.8, 5, 2.2, -0.0219, 0, 2.16, 1.8307, 5, 2.16, 1.8307, 0, 2.16, 1.8307, 5, 2.2, 1.8307, 0, 2.16, 1.8307, 5, 2.16, -0.0219, 0, 2.2, -0.0219, 5, 2.16, -0.0219, 0, 2.16, -0.0219, 5, 2.2, 1.8307, 5, 2.16, -0.0219, 5, 2.16, -0.9667, 0, 0.96, -0.0219, 5, 0.96, -0.0219, 0, 0.96, -0.9667, 0, 1, -0.9667, 5, 0.96, -0.9667, 0, 0.96, -0.9667, 5, 1, -0.0219, 5, 0.96, -0.9667, 5, 0.96, -0.0219, 5, 1, -0.0219, 0, 0.96, -0.0219, 5, 0.96, 1, -0.005, 2.2, -0.0191, -0.005, 1, -0.0191, -0.005, 2.2, 1, 0, 2.2, 1, -0.005, 1, 1, -0.005, 2.2, -0.0191, 0, 1, -0.0191, -0.005, 2.2, -0.0191, -0.005, 1, -0.0191, 0, 2.2, 1, -0.005, 2.2, -0.0191, -0.005, 2.2, 1, -0.2, -1, 1, -0.2, 1, 1, -0.1227, 1, 1, 0, 1, -1, -0.2, 1, 1, -0.2, 1, 1, 0, -1, 1, -0.2, 1, 1, -0.2, -1, -1, 0, 1, -1, -0.2, -1, -1, -0.2, 1, 1, 0.028, 1, 1.8484, 0.028, 2.2, 1.8484, 0.028, 1, 1.8484, 0, 2.2, 1.8484, 0.028, 1, 1.8484, 0.028, 2.2, 1, 0, 2.2, 1.8484, 0.028, 2.2, 1, 0.028, 2.2, 1, 0, 1, 1, 0.028, 2.2, 1, 0.028, 1, 1.8333, 5, 1, 1.8333, 0, 2.2, 1.8333, 0, 1, 1, 5, 1, 1.8333, 0, 1, 1, 0, 1, 1.8307, 5, 2.2, -0.0219, 0, 2.2, 1.8307, 0, 2.2, -0.0219, 5, 1, -0.9667, 0, 1, -0.0219, 0, 1, -0.0219, 5, 0.96, 0.0077, 0.0148, 0.9993, 0.0077, 5.0148, 0.9993, 0.9667, 0, 1, 1.0043, 4.9696, 1.0343, 0.9667, 5, 1, 0.149, 5, -1, -1, 5, -0.96, 0.149, 5, -0.96, -1, 5, -0.96, 0.149, 0, -0.96, 0.149, 5, -0.96, -1, 5, -1, -1, 0, -0.96, -1, 5, -0.96, 0.149, 0, -1, 0.149, 5, -0.96, 0.149, 0, -0.96, -1, 0, -1, 0.149, 0, -0.96, -1, 0, -0.96, -1, 5, -1, 0.149, 0, -1, -1, 0, -1, -1, -0.1227, 1, -1, -0.1227, -1, -1, 0.0015, -1, 1, -0.1227, -1, 1, -0.1227, 1, 1, 0.0015, 1, 1, -0.2, 1, -1, -0.2, 1, -1, -0.1227, 1, -1, -0.2, -1, 1, -0.2, -1, 1, -0.1227, -1, 1, 0.0015, 1, -1, 0.0015, 1, -1, 0.0015, -1, 1, 0.0015, 1, -1, 0.0015, -1, 1, 0.0015, -1, 1, -0.1227, 1, -1, -0.1227, 1, -1, 0.0015, 1, -1, -0.1227, -1, 1, -0.1227, -1, 1, 0.0015, -1, -0.0219, 0, 2.16, -0.0219, 5, 2.16, -0.0219, 5, 1.7225, -1, -0.2, 1, -1, -0.1227, -1, -1, -0.1227, 1, 1, -0.2, -1, 1, -0.1227, 1, 1, -0.1227, -1, -1, -0.1227, 1, -1, 0.0015, -1, -1, 0.0015, 1, 1, -0.1227, -1, 1, 0.0015, 1, 1, 0.0015, -1, 1, -0.2, 1, -1, -0.1227, 1, 1, -0.1227, 1, -1, -0.2, -1, 1, -0.1227, -1, -1, -0.1227, -1, 1, -0.1227, 1, -1, 0.0015, 1, 1, 0.0015, 1, -1, -0.1227, -1, 1, 0.0015, -1, -1, 0.0015, -1, -0.0219, 0, 2.16, -0.0219, 5, 1.7225, -0.0219, 0, 1.7225 )

[sub_resource type="ConcavePolygonShape" id=2]
data = PoolVector3Array( -1, 0, -1, -1, 0, 1, 1, 0, 1, 1, 0.2, 1, -1, 0.2, 1, -1, 0.2, -1, 1, 0, -1, 1, 0, 1, 1, 0.2, 1, -1, 0, 1, -1, 0, -1, -1, 0.2, -1, -1, 0, -1, 1, 0, -1, 1, 0.2, -1, 1, 0, 1, -1, 0, 1, -1, 0.2, 1, -1, 0, -1, 1, 0, 1, 1, 0, -1, 1, 0.2, 1, -1, 0.2, -1, 1, 0.2, -1, 1, 0, -1, 1, 0.2, 1, 1, 0.2, -1, -1, 0, 1, -1, 0.2, -1, -1, 0.2, 1, -1, 0, -1, 1, 0.2, -1, -1, 0.2, -1, 1, 0, 1, -1, 0.2, 1, 1, 0.2, 1 )

[sub_resource type="ConcavePolygonShape" id=3]
data = PoolVector3Array( -1, 1, 1, -1, 0, -1, -1, 1, -1, -1, 0, -1, 1, -1, -1, 0, 1, -1, 1, 1, -1, 1, -1, -1, 1, -1, 1, 0, 1, 1, 0, -1, 1, -1, -1, 1, 1, -1, -1, 0, -1, 1, 1, -1, 1, -1, 1, -1, -1, 1, -6, -1, 1, -4, -1, 1, -6, 0, 1, -6, 0, 1, -4, -1, -1, -1, 1, -1, -1, 1, -1, -6, 1, -1, -1, 1, 1, -1, 1, 1, -6, -1, -1, -6, -1, 1, -6, -1, 1, -6, -1, 0, -1, -1, 1, -6, -1, -1, -6, 1, 1, 1, 0, 1, 1, 0, 1, -4, -1, 1, -1, 0, 1, -1, 0, 1, -6, 1, 1, -1, 1, 1, 1, 1, 1, -4, 0, 1, -1, 1, 1, -1, 1, 1, -6, 0, 1, 1, -1, 1, 1, -1, 1, -4, 0, 1, -6, 1, 1, -6, 1, 1, -4, 1, 1, 1, 1, -1, 1, 0, -1, 1, 0, -0.4731, 1, 0, -0.4731, -4, 0, -1, -4, 0, 0.592, 1, 0, 0.592, -4, 0, 0.2117, -4, 0, 0.2117, 1, 0, 0.2117, -4, 1.0038, 0.2117, -4, 0, 1, 1, 0, 1, -4, 0, 0.592, -4, 0, 0.2117, 1, 0, 0.2117, -4, 0, 0.0135, -4, 0, 0.0135, 1, 0, 0.0135, -4, 0, -0.4731, -4, 0, 0.592, 1, 0, 0.592, -4, -1.0395, 0.592, -4, 0, -0.4731, 1, 0, -0.4731, -4, 0.999, -0.4731, -4, 0, 0.0135, 1, 0, 0.0135, -4, -1.0353, 0.0135, -4, -1, -1, -1, -1, 0, -1, -1, -1, 1, -1, -1, 1, -1, 0, -1, -1, 1, 1, 1, -1, -1, -1, 0, -1, -1, -1, -1, -1, 0, -1, 0, 1, -1, -1, 1, -1, 0, 1, -1, 1, -1, -1, 1, 1, -1, 1, 1, -1, 1, -1, 1, 1, 1, 1, 0, 1, 1, -1, -1, 1, -1, 1, 1, -1, -1, 1, 0, -1, 1, -1, -1, -1, -1, -1, -1, 0, -1, 1, 1, -1, -1, -1, 1, -1, -1, 1, -4, -1, 1, 1, -1, 1, -6, 0, 1, -4, -1, 1, -4, -1, -1, -1, 1, -1, -6, -1, -1, -6, 1, -1, -1, 1, 1, -6, 1, -1, -6, -1, -1, -6, -1, 1, -6, -1, -1, -6, -1, 1, -6, -1, 0, -1, -1, 1, -1, -1, 0, -1, -1, -1, -6, -1, -1, -1, 1, 1, 1, 0, 1, -4, 1, 1, -4, -1, 1, -1, 0, 1, -6, -1, 1, -6, 1, 1, -1, 1, 1, -4, 1, 1, -6, 0, 1, -1, 1, 1, -6, 0, 1, -6, 0, 1, 1, -1, 1, -4, 0, 1, -4, 0, 1, -6, 1, 1, -4, 0, 1, -4, 1, 1, 1, 0, -1, 1, 0, 1, 1, 0, -0.4731, 1, 0, -1, -4, 0, -1, 1, 0, 0.592, 1, 0, 0.2117, -4, 0, 0.2117, 1, 0, 0.2117, 1, 1.0038, 0.2117, -4, 1.0038, 0.2117, 1, 0, 1, 1, 0, 0.592, -4, 0, 0.592, 1, 0, 0.2117, 1, 0, 0.0135, -4, 0, 0.0135, 1, 0, 0.0135, 1, 0, -0.4731, -4, 0, -0.4731, 1, 0, 0.592, 1, -1.0395, 0.592, -4, -1.0395, 0.592, 1, 0, -0.4731, 1, 0.999, -0.4731, -4, 0.999, -0.4731, 1, 0, 0.0135, 1, -1.0353, 0.0135, -4, -1.0353, 0.0135, 1 )

[sub_resource type="ConcavePolygonShape" id=4]
data = PoolVector3Array( 0.7094, 0, -1, 0.7094, 0, 1, 1, 0, 1, 1, 0.1, 1, 0.7094, 0.1, 1, 0.7094, 0.1, -1, 1, 0, -1, 1, 0, 1, 1, 0.1, 1, -0.6857, 0, -1, -0.6857, 0, 1, -0.6857, 0, 1, -1, 0, -1, -0.6857, 0, -1, -0.6857, 0.1, -1, 1, 0, 1, 0.7094, 0, 1, 0.7094, 0.1, 1, -1, 0, 1, -1, 0.1, 1, -1, 0.1, 1, 0.7094, 0.1, -1, 0.7094, 0.1, 1, 0.7094, 0.1, 1, 1, 0, 1, 1, 0.1, 1, 1, 0.1, 1, -0.6857, 0, 1, 0.7094, 0, 1, 0.7094, 0, 1, -0.6857, 0.1, 1, -0.6857, 0, 1, -0.6857, 0, 1, 1, 0, 1, 1, 0, -1, 1, 0, -1, -1, 0, 1, -1, 0, -1, -1, 0, -1, -0.6857, 0, -1, 0.7094, 0, -1, 0.7094, 0.1, -1, -0.6857, 0, 1, -1, 0, 1, -1, 0, 1, -1, 0, -1, -1, 0, 1, -0.6857, 0, 1, 0.7094, 0, -1, 1, 0, -1, 1, 0.1, -1, 0.7094, 0, 1, 0.0118, 0.1, 1, 0.7094, 0.1, 1, -0.6857, 0, 1, -1, 0, 1, -1, 0.1, 1, -0.6857, 0, -1, -0.6857, 0, 1, 0.7094, 0, 1, 1, 0.1, 1, 0.7094, 0.1, 1, 0.7094, 0.1, 1, -1, 0.1, 1, -0.8552, 0.1496, 1, -0.8552, 0.1496, 1, 0.0118, 0.1, 1, -0.6857, 0.1, 1, 0.7094, 0.1, 1, -1, 0.1, 1, -0.6857, 0.1, 1, -0.6857, 0.1, 1, 1, 0.1, -1, 1, 0.1, 1, 1, 0.1, 1, -0.6857, 0, 1, -0.6857, 0.1, 1, -0.6857, 0.1, -0.9588, -0.8472, 0.1399, 1, -1.8725, 1.5537, 1.2086, -1.8725, 1.5537, -0.7502, -1, 0.1, 1, -0.6857, 0.1, 1, -0.6857, 0.1, -0.9588, -1, 0.1, -0.9588, -0.8472, 0.1399, -0.9588, -1.8725, 1.5537, -0.7502, 1, 0.1, 1, 0.7094, 0.1, 1, 0.7094, 0.1, -0.9588, -1, 0.1, -0.9588, -1, 0.1, 1, -0.8472, 0.1399, 1, -2.0253, 1.5138, 1.2086, -2.0253, 1.5138, -0.7502, -1.8725, 1.5537, -0.7502, -1, 0, 1, -0.6857, 0, 1, -0.6857, 0, -0.9588, -1, 0.1, 1, -2.0253, 1.5138, 1.2086, -1.8725, 1.5537, 1.2086, 0.7094, 0, 1, -0.6857, 0, 1, -0.6857, 0, -0.9588, -0.8552, 0.1496, 1, -1, 0.1, 1, -1, 0.1, -0.9588, 0.0118, 0.1, 1, 0.7094, 0.1, -0.9588, -0.6857, 0.1, -0.9588, -0.6857, 0.1, 1, -1, 0.1, 1, -1, 0.1, -0.9588, -1, 0, 1, -1, 0.1, 1, -1, 0.1, -0.9588, 1, 0, 1, 1, 0.1, 1, 1, 0.1, -0.9588, -0.8472, 0.1399, -0.9588, -0.8472, 0.1399, 1, -0.8472, -0.8601, 1, 1, 0, -0.9588, 1, 0.1, -0.9588, 1, -0.9, -0.9588, 1, 0.1, -0.9588, 1, 0.1, 1, 1, -0.9, 1, -1, 0.1, -0.9588, -1, 0.1, 1, -1, -0.9, 1, 1, 0.1, -1, 1, 0.1, 1, 1, -0.9, 1, 0.7094, 0.1, 1, 0.7094, 0.1, -1, 0.7094, -0.9, -1, 1, 0, 1, 1, 0, -0.9588, 1, -1, -0.9588, 1, 0, 1, 1, 0, -1, 1, -1, -1, -0.6857, 0.1, -0.9588, -0.6857, 0.1, 1, -0.6857, -0.9, 1, 0.7094, 0.1, -0.9588, 0.7094, 0.1, 1, 0.7094, -0.9, 1, 0.7094, -0.9, 1, 0.9313, -0.8549, 1.0961, 0.9313, -0.8549, -0.8627, 0.7094, -0.9, 1, 0.7094, -0.9, -1, 0.9313, -0.8549, -0.9039, 0.7094, 0, -1, 1, 0, 1, 1, 0, -1, 1, 0.1, 1, 0.7094, 0.1, -1, 1, 0.1, -1, 1, 0, -1, 1, 0.1, 1, 1, 0.1, -1, -0.6857, 0, -1, -0.6857, 0, 1, -0.6857, 0, -1, -1, 0, -1, -0.6857, 0.1, -1, -1, 0.1, -1, 1, 0, 1, 0.7094, 0.1, 1, 1, 0.1, 1, -1, 0, 1, -1, 0.1, 1, -1, 0, 1, 0.7094, 0.1, -1, 0.7094, 0.1, 1, 0.7094, 0.1, -1, 1, 0, 1, 1, 0.1, 1, 1, 0, 1, -0.6857, 0, 1, 0.7094, 0, 1, -0.6857, 0, 1, -0.6857, 0.1, 1, -0.6857, 0, 1, -0.6857, 0.1, 1, 1, 0, 1, 1, 0, -1, 1, 0, 1, -1, 0, 1, -1, 0, -1, -1, 0, 1, -0.6857, 0, -1, 0.7094, 0.1, -1, -0.6857, 0.1, -1, -0.6857, 0, 1, -1, 0, 1, -0.6857, 0, 1, -1, 0, -1, -0.6857, 0, 1, -0.6857, 0, -1, 0.7094, 0, -1, 1, 0.1, -1, 0.7094, 0.1, -1, -0.6857, 0.1, 1, 0.0118, 0.1, 1, -0.6857, 0, 1, -0.6857, 0, 1, 0.0118, 0.1, 1, 0.7094, 0, 1, -0.6857, 0, 1, -1, 0.1, 1, -0.6857, 0.1, 1, -0.6857, 0, -1, 0.7094, 0, 1, 0.7094, 0, -1, 1, 0.1, 1, 0.7094, 0.1, 1, 1, 0.1, 1, -1, 0.1, 1, -0.8552, 0.1496, 1, -1, 0.1, 1, -0.6857, 0.1, 1, 0.0118, 0.1, 1, -0.6857, 0.1, 1, 0.0118, 0.1, 1, 0.7094, 0.1, 1, 0.7094, 0.1, 1, -1, 0.1, 1, -0.6857, 0.1, 1, -1, 0.1, 1, 1, 0.1, -1, 1, 0.1, 1, 1, 0.1, -1, -0.6857, 0, 1, -0.6857, 0.1, -0.9588, -0.6857, 0, -0.9588, -0.8472, 0.1399, 1, -1.8725, 1.5537, -0.7502, -0.8472, 0.1399, -0.9588, -1, 0.1, 1, -0.6857, 0.1, -0.9588, -1, 0.1, -0.9588, -1, 0.1, -0.9588, -1.8725, 1.5537, -0.7502, -2.0253, 1.5138, -0.7502, 1, 0.1, 1, 0.7094, 0.1, -0.9588, 1, 0.1, -0.9588, -1, 0.1, -0.9588, -0.8472, 0.1399, 1, -0.8472, 0.1399, -0.9588, -2.0253, 1.5138, 1.2086, -1.8725, 1.5537, -0.7502, -1.8725, 1.5537, 1.2086, -1, 0, 1, -0.6857, 0, -0.9588, -1, 0, -0.9588, -1, 0.1, 1, -1.8725, 1.5537, 1.2086, -0.8472, 0.1399, 1, 0.7094, 0, 1, -0.6857, 0, -0.9588, 0.7094, 0, -0.9588, -0.8552, 0.1496, 1, -1, 0.1, -0.9588, -0.8552, 0.1496, -0.9588, 0.7094, 0.1, -0.9588, 0.0118, 0.1, 1, 0.7094, 0.1, 1, 0.0118, 0.1, 1, -0.6857, 0.1, -0.9588, -0.6857, 0.1, 1, -0.6857, 0.1, 1, -1, 0.1, -0.9588, -0.6857, 0.1, -0.9588, -1, 0, 1, -1, 0.1, -0.9588, -1, 0, -0.9588, 1, 0, 1, 1, 0.1, -0.9588, 1, 0, -0.9588, -0.8472, 0.1399, -0.9588, -0.8472, -0.8601, 1, -0.8472, -0.8601, -0.9588, 1, 0, -0.9588, 1, -0.9, -0.9588, 1, -1, -0.9588, 1, 0.1, -0.9588, 1, -0.9, 1, 1, -0.9, -0.9588, -1, 0.1, -0.9588, -1, -0.9, 1, -1, -0.9, -0.9588, 1, 0.1, -1, 1, -0.9, 1, 1, -0.9, -1, 0.7094, 0.1, 1, 0.7094, -0.9, -1, 0.7094, -0.9, 1, 1, 0, 1, 1, -1, -0.9588, 1, -1, 1, 1, 0, 1, 1, -1, -1, 1, -1, 1, -0.6857, 0.1, -0.9588, -0.6857, -0.9, 1, -0.6857, -0.9, -0.9588, 0.7094, 0.1, -0.9588, 0.7094, -0.9, 1, 0.7094, -0.9, -0.9588, 0.7094, -0.9, 1, 0.9313, -0.8549, -0.8627, 0.7094, -0.9, -0.9588, 0.7094, -0.9, 1, 0.9313, -0.8549, -0.9039, 0.9313, -0.8549, 1.0961 )

[sub_resource type="ConcavePolygonShape" id=5]
data = PoolVector3Array( 1, 0, 1, 0.527, 0, 1, 0.527, 0, -1, 1, 0.7279, 1, 1, 0, 1, 0.9272, 0, 1, 1, 0.7279, 1, 0.527, 0.7279, 1, 0.527, 0.7279, 0.8, -1, 0, -1, -1, 0, 1, -0.9272, 0, 1, -1, 0, 0.8, -0.3065, 0, 0.8, -0.3065, 0.7279, 0.8, 1, 0, 1, 1, 0.7279, 1, 1, 0.7279, 0.8, -1, 0, 1, -0.3065, 0, 1, -0.3065, 0, 0.8, -1, 0.7279, 1, -1, 0, 1, -1, 0, 0.8, -0.9272, 0, -1, -0.9272, 0, 1, -0.9272, 0.7279, 1, -1, 0.7279, -1, -1, 0, -1, -0.9272, 0, -1, -1, 0.7279, 1, -1, 0.7279, -1, -0.9272, 0.7279, -1, -1, 0, 1, -1, 0.7279, 1, -0.9272, 0.7279, 1, 0.9272, 0, 1, 0.9272, 0, -1, 0.9272, 0.7279, -1, 1, 0.7279, -1, 1, 0.7279, 1, 0.9272, 0.7279, 1, 1, 0, 1, 1, 0, -1, 0.9272, 0, -1, 1, 0, -1, 1, 0.7279, -1, 0.9272, 0.7279, -1, 1, 0.7279, 1, 1, 0.7279, -1, 1, 0, -1, -1, 0.7279, -1, -1, 0.7279, 1, -1, 0, 1, -1, 0.7279, 1, -0.3065, 0.7279, 1, -0.3065, 0, 1, 0.3636, 0.7279, 1, 0.527, 0.7279, 1, 0.527, 0, 1, 0.3636, 0, 1, 0.527, 0, 1, 0.527, 0, 0.8, 0.3636, 0, 0.8, 0.527, 0, 0.8, 0.527, 0.7279, 0.8, 0.3636, 0.7279, 1, -0.1345, 0.7279, 1, -0.1345, 0.7279, 0.8, 0.3636, 0, 1, -0.1345, 0, 1, -0.1345, 0, -1, -0.3065, 0, 1, -1, 0, 1, -1, 0, -1, -0.3065, 0.7279, 1, -1, 0.7279, 1, -1, 0.7279, 0.8, -0.3065, 0.7279, 1, -0.1345, 0.7279, 1, -0.1345, 0, 1, -0.3065, 0, 1, -0.1345, 0, 1, -0.1345, 0, 0.8, -0.3065, 0, 0.8, -0.1345, 0, 0.8, -0.1345, 0.7279, 0.8, 0.527, 0, 0.8, 1, 0, 0.8, 1, 0.7279, 0.8, 0.527, 0, 1, 1, 0, 1, 1, 0, 0.8, 0.527, 0.7279, 1, 1, 0.7279, 1, 1, 0, 1, 0.527, 0.7279, 1, 0.3636, 0.7279, 1, 0.3636, 0.7279, 0.8, 0.527, 0, 1, 0.3636, 0, 1, 0.3636, 0, -1, 0.3636, 0.7279, -1, 0.527, 0.7279, -1, 0.527, 0.7279, -0.8, -0.1345, 0, 0.8, 0.3636, 0, 0.8, 0.3636, 0.7279, 0.8, -0.1345, 0, 1, 0.3636, 0, 1, 0.3636, 0, 0.8, -0.1345, 0.7279, 1, 0.3636, 0.7279, 1, 0.3636, 0, 1, -0.1345, 0, 1, -0.3065, 0, 1, -0.3065, 0, -1, -0.1345, 0.7279, 1, -0.3065, 0.7279, 1, -0.3065, 0.7279, 0.8, -0.1345, 0, -1, -0.3065, 0, -1, -0.3065, 0, -0.8, 0.9272, 0.7279, -1, 1, 0.7279, -1, -0.9277, 0.7279, -1, 0.527, 0, -0.8, 0.3636, 0, -0.8, 0.3636, 0.7279, -0.8, 0.527, 0, -1, 0.3636, 0, -1, 0.3636, 0, -0.8, 0.3636, 0, -1, 0.3636, 0.7279, -1, 0.3636, 0.7279, -0.8, 0.527, 0.7279, -1, 0.527, 0, -1, 0.527, 0, -0.8, -0.1345, 0, -0.8, -0.3065, 0, -0.8, -0.3065, 0.7279, -0.8, -0.1345, 0.7279, -1, -0.1345, 0, -1, -0.1345, 0, -0.8, -0.3065, 0.7279, -1, -0.1345, 0.7279, -1, -0.1345, 0.7279, -0.8, -0.3065, 0, -1, -0.3065, 0.7279, -1, -0.3065, 0.7279, -0.8, 0.527, 0, -1, 0.527, 0.7279, -1, 0.3714, 0.7279, -1, -0.1345, 0, -1, -0.1345, 0.7279, -1, -0.3123, 0.7279, -1, 0.9272, 0.7279, -1, -1.0005, 0.7279, -1, -1.0005, 0.7279, -0.8, 1, 0, 1, 0.527, 0, -1, 1, 0, -1, 1, 0.7279, 1, 0.9272, 0, 1, 0.9272, 0.7279, 1, 1, 0.7279, 1, 0.527, 0.7279, 0.8, 1, 0.7279, 0.8, -1, 0, -1, -0.9272, 0, 1, -0.9272, 0, -1, -1, 0, 0.8, -0.3065, 0.7279, 0.8, -1, 0.7279, 0.8, 1, 0, 1, 1, 0.7279, 0.8, 1, 0, 0.8, -1, 0, 1, -0.3065, 0, 0.8, -1, 0, 0.8, -1, 0.7279, 1, -1, 0, 0.8, -1, 0.7279, 0.8, -0.9272, 0, -1, -0.9272, 0.7279, 1, -0.9272, 0.7279, -1, -1, 0.7279, -1, -0.9272, 0, -1, -0.9272, 0.7279, -1, -1, 0.7279, 1, -0.9272, 0.7279, -1, -0.9272, 0.7279, 1, -1, 0, 1, -0.9272, 0.7279, 1, -0.9272, 0, 1, 0.9272, 0, 1, 0.9272, 0.7279, -1, 0.9272, 0.7279, 1, 1, 0.7279, -1, 0.9272, 0.7279, 1, 0.9272, 0.7279, -1, 1, 0, 1, 0.9272, 0, -1, 0.9272, 0, 1, 1, 0, -1, 0.9272, 0.7279, -1, 0.9272, 0, -1, 1, 0.7279, 1, 1, 0, -1, 1, 0, 1, -1, 0.7279, -1, -1, 0, 1, -1, 0, -1, -1, 0.7279, 1, -0.3065, 0, 1, -1, 0, 1, 0.3636, 0.7279, 1, 0.527, 0, 1, 0.3636, 0, 1, 0.3636, 0, 1, 0.527, 0, 0.8, 0.3636, 0, 0.8, 0.3636, 0, 0.8, 0.527, 0.7279, 0.8, 0.3636, 0.7279, 0.8, 0.3636, 0.7279, 1, -0.1345, 0.7279, 0.8, 0.3636, 0.7279, 0.8, 0.3636, 0, 1, -0.1345, 0, -1, 0.3636, 0, -1, -0.3065, 0, 1, -1, 0, -1, -0.3065, 0, -1, -0.3065, 0.7279, 1, -1, 0.7279, 0.8, -0.3065, 0.7279, 0.8, -0.3065, 0.7279, 1, -0.1345, 0, 1, -0.3065, 0, 1, -0.3065, 0, 1, -0.1345, 0, 0.8, -0.3065, 0, 0.8, -0.3065, 0, 0.8, -0.1345, 0.7279, 0.8, -0.3065, 0.7279, 0.8, 0.527, 0, 0.8, 1, 0.7279, 0.8, 0.527, 0.7279, 0.8, 0.527, 0, 1, 1, 0, 0.8, 0.527, 0, 0.8, 0.527, 0.7279, 1, 1, 0, 1, 0.527, 0, 1, 0.527, 0.7279, 1, 0.3636, 0.7279, 0.8, 0.527, 0.7279, 0.8, 0.527, 0, 1, 0.3636, 0, -1, 0.527, 0, -1, 0.3636, 0.7279, -1, 0.527, 0.7279, -0.8, 0.3636, 0.7279, -0.8, -0.1345, 0, 0.8, 0.3636, 0.7279, 0.8, -0.1345, 0.7279, 0.8, -0.1345, 0, 1, 0.3636, 0, 0.8, -0.1345, 0, 0.8, -0.1345, 0.7279, 1, 0.3636, 0, 1, -0.1345, 0, 1, -0.1345, 0, 1, -0.3065, 0, -1, -0.1345, 0, -1, -0.1345, 0.7279, 1, -0.3065, 0.7279, 0.8, -0.1345, 0.7279, 0.8, -0.1345, 0, -1, -0.3065, 0, -0.8, -0.1345, 0, -0.8, 0.9272, 0.7279, -1, -0.9277, 0.7279, -1, -1.0005, 0.7279, -1, 0.527, 0, -0.8, 0.3636, 0.7279, -0.8, 0.527, 0.7279, -0.8, 0.527, 0, -1, 0.3636, 0, -0.8, 0.527, 0, -0.8, 0.3636, 0, -1, 0.3636, 0.7279, -0.8, 0.3636, 0, -0.8, 0.527, 0.7279, -1, 0.527, 0, -0.8, 0.527, 0.7279, -0.8, -0.1345, 0, -0.8, -0.3065, 0.7279, -0.8, -0.1345, 0.7279, -0.8, -0.1345, 0.7279, -1, -0.1345, 0, -0.8, -0.1345, 0.7279, -0.8, -0.3065, 0.7279, -1, -0.1345, 0.7279, -0.8, -0.3065, 0.7279, -0.8, -0.3065, 0, -1, -0.3065, 0.7279, -0.8, -0.3065, 0, -0.8, 0.527, 0, -1, 0.3714, 0.7279, -1, 0.3714, 0, -1, -0.1345, 0, -1, -0.3123, 0.7279, -1, -0.3123, 0, -1, 0.9272, 0.7279, -1, -1.0005, 0.7279, -0.8, 0.9272, 0.7279, -0.8 )

[sub_resource type="ConcavePolygonShape" id=6]
data = PoolVector3Array( 0.7094, 0, -1, 0.7094, 0, 1, 1, 0, 1, 1, 0.1, 1, 0.7094, 0.1, 1, 0.7094, 0.1, -1, 1, 0, -1, 1, 0, 1, 1, 0.1, 1, -0.6857, 0, -1, -0.6857, 0, 1, -0.6857, 0, 1, -1, 0, -1, -0.6857, 0, -1, -0.6857, 0.1, -1, 1, 0, 1, 0.7094, 0, 1, 0.7094, 0.1, 1, -1, 0, 1, -1, 0.1, 1, -1, 0.1, 1, 0.7094, 0.1, -1, 0.7094, 0.1, 1, 0.7094, 0.1, 1, 1, 0, 1, 1, 0.1, 1, 1, 0.1, 1, -0.6857, 0, 1, 0.7094, 0, 1, 0.7094, 0, 1, -0.6857, 0.1, 1, -0.6857, 0, 1, -0.6857, 0, 1, 1, 0, 1, 1, 0, -1, 1, 0, -1, -1, 0, 1, -1, 0, -1, -1, 0, -1, -0.6857, 0, -1, 0.7094, 0, -1, 0.7094, 0.1, -1, -0.6857, 0, 1, -1, 0, 1, -1, 0, 1, -1, 0, -1, -1, 0, 1, -0.6857, 0, 1, 0.7094, 0, -1, 1, 0, -1, 1, 0.1, -1, 0.7094, 0, 1, 0.0118, 0.1, 1, 0.7094, 0.1, 1, -0.6857, 0, 1, -1, 0, 1, -1, 0.1, 1, -0.6857, 0, -1, -0.6857, 0, 1, 0.7094, 0, 1, 1, 0.1, 1, 0.7094, 0.1, 1, 0.7094, 0.1, 1, -1, 0.1, 1, -0.8552, 0.1496, 1, -0.8552, 0.1496, 1, 0.0118, 0.1, 1, -0.6857, 0.1, 1, 0.7094, 0.1, 1, -1, 0.1, 1, -0.6857, 0.1, 1, -0.6857, 0.1, 1, 1, 0.1, -1, 1, 0.1, 1, 1, 0.1, 1, -0.6857, 0, 1, -0.6857, 0.1, 1, -0.6857, 0.1, -0.9588, -0.8472, 0.1399, 1, -1.8725, 1.5537, 1.2086, -1.8725, 1.5537, -0.7502, -1, 0.1, 1, -0.6857, 0.1, 1, -0.6857, 0.1, -0.9588, -1, 0.1, -0.9588, -0.8472, 0.1399, -0.9588, -1.8725, 1.5537, -0.7502, 1, 0.1, 1, 0.7094, 0.1, 1, 0.7094, 0.1, -0.9588, -1, 0.1, -0.9588, -1, 0.1, 1, -0.8472, 0.1399, 1, -2.0253, 1.5138, 1.2086, -2.0253, 1.5138, -0.7502, -1.8725, 1.5537, -0.7502, -1, 0, 1, -0.6857, 0, 1, -0.6857, 0, -0.9588, -1, 0.1, 1, -2.0253, 1.5138, 1.2086, -1.8725, 1.5537, 1.2086, 0.7094, 0, 1, -0.6857, 0, 1, -0.6857, 0, -0.9588, -0.8552, 0.1496, 1, -1, 0.1, 1, -1, 0.1, -0.9588, 0.0118, 0.1, 1, 0.7094, 0.1, -0.9588, -0.6857, 0.1, -0.9588, -0.6857, 0.1, 1, -1, 0.1, 1, -1, 0.1, -0.9588, -1, 0, 1, -1, 0.1, 1, -1, 0.1, -0.9588, 1, 0, 1, 1, 0.1, 1, 1, 0.1, -0.9588, -0.8472, 0.1399, -0.9588, -0.8472, 0.1399, 1, -0.8472, -0.8601, 1, 1, 0, -0.9588, 1, 0.1, -0.9588, 1, -0.9, -0.9588, 1, 0.1, -0.9588, 1, 0.1, 1, 1, -0.9, 1, -1, 0.1, -0.9588, -1, 0.1, 1, -1, -0.9, 1, 1, 0.1, -1, 1, 0.1, 1, 1, -0.9, 1, 0.7094, 0.1, 1, 0.7094, 0.1, -1, 0.7094, -0.9, -1, 1, 0, 1, 1, 0, -0.9588, 1, -1, -0.9588, 1, 0, 1, 1, 0, -1, 1, -1, -1, -0.6857, 0.1, -0.9588, -0.6857, 0.1, 1, -0.6857, -0.9, 1, 0.7094, 0.1, -0.9588, 0.7094, 0.1, 1, 0.7094, -0.9, 1, 0.7094, -0.9, 1, 0.9313, -0.8549, 1.0961, 0.9313, -0.8549, -0.8627, 0.7094, -0.9, 1, 0.7094, -0.9, -1, 0.9313, -0.8549, -0.9039, 0.7094, 0, -1, 1, 0, 1, 1, 0, -1, 1, 0.1, 1, 0.7094, 0.1, -1, 1, 0.1, -1, 1, 0, -1, 1, 0.1, 1, 1, 0.1, -1, -0.6857, 0, -1, -0.6857, 0, 1, -0.6857, 0, -1, -1, 0, -1, -0.6857, 0.1, -1, -1, 0.1, -1, 1, 0, 1, 0.7094, 0.1, 1, 1, 0.1, 1, -1, 0, 1, -1, 0.1, 1, -1, 0, 1, 0.7094, 0.1, -1, 0.7094, 0.1, 1, 0.7094, 0.1, -1, 1, 0, 1, 1, 0.1, 1, 1, 0, 1, -0.6857, 0, 1, 0.7094, 0, 1, -0.6857, 0, 1, -0.6857, 0.1, 1, -0.6857, 0, 1, -0.6857, 0.1, 1, 1, 0, 1, 1, 0, -1, 1, 0, 1, -1, 0, 1, -1, 0, -1, -1, 0, 1, -0.6857, 0, -1, 0.7094, 0.1, -1, -0.6857, 0.1, -1, -0.6857, 0, 1, -1, 0, 1, -0.6857, 0, 1, -1, 0, -1, -0.6857, 0, 1, -0.6857, 0, -1, 0.7094, 0, -1, 1, 0.1, -1, 0.7094, 0.1, -1, -0.6857, 0.1, 1, 0.0118, 0.1, 1, -0.6857, 0, 1, -0.6857, 0, 1, 0.0118, 0.1, 1, 0.7094, 0, 1, -0.6857, 0, 1, -1, 0.1, 1, -0.6857, 0.1, 1, -0.6857, 0, -1, 0.7094, 0, 1, 0.7094, 0, -1, 1, 0.1, 1, 0.7094, 0.1, 1, 1, 0.1, 1, -1, 0.1, 1, -0.8552, 0.1496, 1, -1, 0.1, 1, -0.6857, 0.1, 1, 0.0118, 0.1, 1, -0.6857, 0.1, 1, 0.0118, 0.1, 1, 0.7094, 0.1, 1, 0.7094, 0.1, 1, -1, 0.1, 1, -0.6857, 0.1, 1, -1, 0.1, 1, 1, 0.1, -1, 1, 0.1, 1, 1, 0.1, -1, -0.6857, 0, 1, -0.6857, 0.1, -0.9588, -0.6857, 0, -0.9588, -0.8472, 0.1399, 1, -1.8725, 1.5537, -0.7502, -0.8472, 0.1399, -0.9588, -1, 0.1, 1, -0.6857, 0.1, -0.9588, -1, 0.1, -0.9588, -1, 0.1, -0.9588, -1.8725, 1.5537, -0.7502, -2.0253, 1.5138, -0.7502, 1, 0.1, 1, 0.7094, 0.1, -0.9588, 1, 0.1, -0.9588, -1, 0.1, -0.9588, -0.8472, 0.1399, 1, -0.8472, 0.1399, -0.9588, -2.0253, 1.5138, 1.2086, -1.8725, 1.5537, -0.7502, -1.8725, 1.5537, 1.2086, -1, 0, 1, -0.6857, 0, -0.9588, -1, 0, -0.9588, -1, 0.1, 1, -1.8725, 1.5537, 1.2086, -0.8472, 0.1399, 1, 0.7094, 0, 1, -0.6857, 0, -0.9588, 0.7094, 0, -0.9588, -0.8552, 0.1496, 1, -1, 0.1, -0.9588, -0.8552, 0.1496, -0.9588, 0.7094, 0.1, -0.9588, 0.0118, 0.1, 1, 0.7094, 0.1, 1, 0.0118, 0.1, 1, -0.6857, 0.1, -0.9588, -0.6857, 0.1, 1, -0.6857, 0.1, 1, -1, 0.1, -0.9588, -0.6857, 0.1, -0.9588, -1, 0, 1, -1, 0.1, -0.9588, -1, 0, -0.9588, 1, 0, 1, 1, 0.1, -0.9588, 1, 0, -0.9588, -0.8472, 0.1399, -0.9588, -0.8472, -0.8601, 1, -0.8472, -0.8601, -0.9588, 1, 0, -0.9588, 1, -0.9, -0.9588, 1, -1, -0.9588, 1, 0.1, -0.9588, 1, -0.9, 1, 1, -0.9, -0.9588, -1, 0.1, -0.9588, -1, -0.9, 1, -1, -0.9, -0.9588, 1, 0.1, -1, 1, -0.9, 1, 1, -0.9, -1, 0.7094, 0.1, 1, 0.7094, -0.9, -1, 0.7094, -0.9, 1, 1, 0, 1, 1, -1, -0.9588, 1, -1, 1, 1, 0, 1, 1, -1, -1, 1, -1, 1, -0.6857, 0.1, -0.9588, -0.6857, -0.9, 1, -0.6857, -0.9, -0.9588, 0.7094, 0.1, -0.9588, 0.7094, -0.9, 1, 0.7094, -0.9, -0.9588, 0.7094, -0.9, 1, 0.9313, -0.8549, -0.8627, 0.7094, -0.9, -0.9588, 0.7094, -0.9, 1, 0.9313, -0.8549, -0.9039, 0.9313, -0.8549, 1.0961 )

[sub_resource type="ConcavePolygonShape" id=7]
data = PoolVector3Array( -1, 0, -1, -1, 0, 1, 1, 0, 1, 1, 0.2, 1, -1, 0.2, 1, -1, 0.2, -1, 1, 0, -1, 1, 0, 1, 1, 0.2, 1, -1, 0, 1, -1, 0, -1, -1, 0.2, -1, -1, 0, -1, 1, 0, -1, 1, 0.2, -1, 1, 0, 1, -1, 0, 1, -1, 0.2, 1, -1, 0, -1, 1, 0, 1, 1, 0, -1, 1, 0.2, 1, -1, 0.2, -1, 1, 0.2, -1, 1, 0, -1, 1, 0.2, 1, 1, 0.2, -1, -1, 0, 1, -1, 0.2, -1, -1, 0.2, 1, -1, 0, -1, 1, 0.2, -1, -1, 0.2, -1, 1, 0, 1, -1, 0.2, 1, 1, 0.2, 1 )

[sub_resource type="ConcavePolygonShape" id=8]
data = PoolVector3Array( -1, 0, -1, -1, 0, 0.5336, 1, 0, 0.5336, 1, 0.3, 0.5336, -1, 0.3, 0.5336, -1, 0.3, -1, -1, 0, 1, -1, 0, 0.5336, -1, 0.3, 0.5336, -1, 0, -1, 1, 0, -1, 1, 0.3, -1, 1, 0, 1, -1, 0, 1, -1, 0.3, 1, 1, 0, -1, 1, 0, 0.5336, 1, 0.3, 0.5336, 1, 0, 0.5336, 1, 0, 1, 1, 0.3, 1, -1, 0, 0.5336, -1, 0, -1, -1, 0.3, -1, -1, 0.3, 1, -1, 0.3, 0.5336, -1, 0.5, 0.5336, -1, 0, 0.5336, -1, 0, 1, 1, 0, 1, 1, 0.5, 1, -1, 0.5, 1, -1, 0.5, 0.5336, 1, 0.3, 0.5336, 1, 0.3, 1, 1, 0.5, 1, -1, 0.3, 0.5336, 1, 0.3, 0.5336, 1, 0.5, 0.5336, 1, 0.3, 1, -1, 0.3, 1, -1, 0.5, 1, -1, 0, -1, 1, 0, 0.5336, 1, 0, -1, 1, 0.3, 0.5336, -1, 0.3, -1, 1, 0.3, -1, -1, 0, 1, -1, 0.3, 0.5336, -1, 0.3, 1, -1, 0, -1, 1, 0.3, -1, -1, 0.3, -1, 1, 0, 1, -1, 0.3, 1, 1, 0.3, 1, 1, 0, -1, 1, 0.3, 0.5336, 1, 0.3, -1, 1, 0, 0.5336, 1, 0.3, 1, 1, 0.3, 0.5336, -1, 0, 0.5336, -1, 0.3, -1, -1, 0.3, 0.5336, -1, 0.3, 1, -1, 0.5, 0.5336, -1, 0.5, 1, -1, 0, 0.5336, 1, 0, 1, 1, 0, 0.5336, 1, 0.5, 1, -1, 0.5, 0.5336, 1, 0.5, 0.5336, 1, 0.3, 0.5336, 1, 0.5, 1, 1, 0.5, 0.5336, -1, 0.3, 0.5336, 1, 0.5, 0.5336, -1, 0.5, 0.5336, 1, 0.3, 1, -1, 0.5, 1, 1, 0.5, 1 )

[sub_resource type="SpatialMaterial" id=9]
albedo_texture = ExtResource( 3 )

[sub_resource type="SpatialMaterial" id=10]
albedo_texture = ExtResource( 2 )

[sub_resource type="SpatialMaterial" id=11]
albedo_texture = ExtResource( 3 )

[sub_resource type="ConcavePolygonShape" id=12]
data = PoolVector3Array( -16.3594, -4.4095, 9.9736, -18.7363, -4.6669, 9.9736, -17.9339, -4.4095, 9.9736, 26.36, 0.4091, -15.21, 26.36, 0.4091, 15.21, -26.36, 0.4091, 15.21, 27.9, -0.4318, -16.75, 27.9, -0.4318, 16.75, 27.9, 0.6363, 16.75, -19.89, -5.8309, -8.74, -19.89, -5.8309, 8.74, 19.89, -5.8309, 8.74, -27.9, 0.6363, -16.75, -27.9, 0.6363, 16.75, -27.9, -0.4318, 16.75, 27.9, -0.4318, -16.75, 27.9, 0.6363, -16.75, -27.9, 0.6363, -16.75, 27.9, 0.6363, 16.75, 27.9, -0.4318, 16.75, -27.9, -0.4318, 16.75, 26.54, 0.6363, 15.39, 27.9, 0.6363, 16.75, -27.9, 0.6363, 16.75, 26.54, 0.6363, -15.39, 27.9, 0.6363, -16.75, 27.9, 0.6363, 16.75, -26.54, 0.6363, -15.39, -27.9, 0.6363, -16.75, 27.9, 0.6363, -16.75, -26.54, 0.6363, 15.39, -27.9, 0.6363, 16.75, -27.9, 0.6363, -16.75, 26.36, 0.4091, 15.21, 26.54, 0.6363, 15.39, -26.54, 0.6363, 15.39, 26.36, 0.4091, -15.21, 26.54, 0.6363, -15.39, 26.54, 0.6363, 15.39, -26.36, 0.4091, -15.21, -26.54, 0.6363, -15.39, 26.54, 0.6363, -15.39, -26.36, 0.4091, 15.21, -26.54, 0.6363, 15.39, -26.54, 0.6363, -15.39, -27.9, -0.4318, 16.75, -25.6991, -2.238, 15.97, -27.12, -2.238, 15.97, -27.12, -2.238, -15.97, -27.9, -0.4318, -16.75, -27.9, -0.4318, 16.75, 27.12, -2.238, -15.97, 27.9, -0.4318, -16.75, -27.9, -0.4318, -16.75, 27.12, -2.238, 15.97, 27.9, -0.4318, 16.75, 27.9, -0.4318, -16.75, 25.6991, -2.238, 15.97, 27.9, -0.4318, 16.75, 27.12, -2.238, 15.97, -20.09, -5.3499, -8.94, -27.12, -2.238, -15.97, -27.12, -2.238, 15.97, 20.09, -5.3499, -8.94, 27.12, -2.238, -15.97, -27.12, -2.238, -15.97, 20.09, -5.3499, 8.94, 27.12, -2.238, 15.97, 27.12, -2.238, -15.97, 25.6991, -2.238, 15.97, -25.6991, -2.238, 15.97, -27.9, -0.4318, 16.75, -20.09, -5.3499, 8.94, -27.12, -2.238, 15.97, -25.6991, -2.238, 15.97, 19.645, -4.9411, 9.8636, 20.09, -5.3499, 8.94, -20.09, -5.3499, 8.94, 25.6991, -2.238, 15.97, 27.12, -2.238, 15.97, 20.09, -5.3499, 8.94, -15.8108, -2.7696, 9.035, -15.8108, -3.6485, 9.035, -16.3594, -4.4095, 9.035, -25.6991, -2.238, 15.97, 25.6991, -2.238, 15.97, 19.645, -2.238, 9.8636, -19.645, -4.9411, 9.8636, -25.6991, -2.238, 15.97, -19.645, -2.238, 9.8636, 19.645, -4.9411, 9.8636, 19.645, -2.238, 9.8636, 25.6991, -2.238, 15.97, -19.89, -5.8309, 8.74, -20.09, -5.3499, 8.94, 20.09, -5.3499, 8.94, -19.89, -5.8309, -8.74, -20.09, -5.3499, -8.94, -20.09, -5.3499, 8.94, 19.89, -5.8309, -8.74, 20.09, -5.3499, -8.94, -20.09, -5.3499, -8.94, 19.89, -5.8309, 8.74, 20.09, -5.3499, 8.94, 20.09, -5.3499, -8.94, -15.5534, -4.6669, 9.8636, 19.645, -4.9411, 9.8636, -19.645, -4.9411, 9.8636, -15.5534, -2.5122, 9.8636, 19.645, -2.238, 9.8636, 19.645, -4.9411, 9.8636, -19.645, -2.238, 9.8636, 19.645, -2.238, 9.8636, -15.5534, -2.5122, 9.8636, -18.7363, -4.6669, 9.8636, -19.645, -4.9411, 9.8636, -19.645, -2.238, 9.8636, -15.5534, -4.6669, 9.9736, -15.5534, -4.6669, 9.8636, -18.7363, -4.6669, 9.8636, -15.5534, -2.5122, 9.8636, -15.5534, -4.6669, 9.8636, -15.5534, -4.6669, 9.9736, -18.7363, -2.5122, 9.9736, -18.7363, -2.5122, 9.8636, -15.5534, -2.5122, 9.8636, -18.7363, -4.6669, 9.9736, -18.7363, -4.6669, 9.8636, -18.7363, -2.5122, 9.8636, -18.7363, -2.5122, 9.9736, -15.5534, -2.5122, 9.9736, -15.8108, -2.7696, 9.9736, -18.479, -2.7696, 9.035, -15.8108, -2.7696, 9.035, -16.3594, -4.4095, 9.035, -17.9339, -4.4095, 9.035, -18.479, -3.6485, 9.035, -18.479, -2.7696, 9.035, -18.479, -3.6485, 9.9736, -18.7363, -4.6669, 9.9736, -18.7363, -2.5122, 9.9736, -15.5534, -2.5122, 9.9736, -15.5534, -4.6669, 9.9736, -15.8108, -3.6485, 9.9736, -15.8108, -2.7696, 9.035, -15.8108, -2.7696, 9.9736, -15.8108, -3.6485, 9.9736, -15.8108, -3.6485, 9.035, -15.8108, -3.6485, 9.9736, -16.3594, -4.4095, 9.9736, -18.479, -2.7696, 9.035, -18.479, -2.7696, 9.9736, -15.8108, -2.7696, 9.9736, -16.3594, -4.4095, 9.035, -16.3594, -4.4095, 9.9736, -17.9339, -4.4095, 9.9736, -17.9339, -4.4095, 9.035, -17.9339, -4.4095, 9.9736, -18.479, -3.6485, 9.9736, -18.479, -3.6485, 9.035, -18.479, -3.6485, 9.9736, -18.479, -2.7696, 9.9736, -17.7722, -3.0138, 9.0222, -17.7722, -3.0138, 9.6222, -17.9088, -3.0138, 9.6222, -17.7722, -3.6138, 9.0222, -17.7722, -3.6138, 9.6222, -17.7722, -3.0138, 9.6222, -17.9088, -3.6138, 9.0222, -17.9088, -3.6138, 9.6222, -17.7722, -3.6138, 9.6222, -17.9088, -3.0138, 9.0222, -17.9088, -3.0138, 9.6222, -17.9088, -3.6138, 9.6222, -17.7722, -3.0138, 9.6222, -17.7722, -3.6138, 9.6222, -17.9088, -3.6138, 9.6222, -16.428, -3.0138, 9.0222, -16.428, -3.0138, 9.6222, -16.5646, -3.0138, 9.6222, -16.428, -3.6138, 9.0222, -16.428, -3.6138, 9.6222, -16.428, -3.0138, 9.6222, -16.5646, -3.6138, 9.0222, -16.5646, -3.6138, 9.6222, -16.428, -3.6138, 9.6222, -16.5646, -3.0138, 9.0222, -16.5646, -3.0138, 9.6222, -16.5646, -3.6138, 9.6222, -16.428, -3.0138, 9.6222, -16.428, -3.6138, 9.6222, -16.5646, -3.6138, 9.6222, -17.1073, -3.6896, 9.0222, -17.1073, -3.6896, 9.6222, -17.2439, -3.6896, 9.6222, -17.1073, -4.2896, 9.0222, -17.1073, -4.2896, 9.6222, -17.1073, -3.6896, 9.6222, -17.2439, -4.2896, 9.0222, -17.2439, -4.2896, 9.6222, -17.1073, -4.2896, 9.6222, -17.2439, -3.6896, 9.0222, -17.2439, -3.6896, 9.6222, -17.2439, -4.2896, 9.6222, -17.1073, -3.6896, 9.6222, -17.1073, -4.2896, 9.6222, -17.2439, -4.2896, 9.6222, 2.1192, -6.4516, 1.8535, 2.1192, -7.5116, 0.7935, -2.1192, -7.5116, 0.7935, -2.1192, -7.5116, -0.7935, -2.1192, -7.5116, 0.7935, 2.1192, -7.5116, 0.7935, 2.1192, -7.5116, -0.7935, 2.1192, -6.4516, -1.8535, -2.1192, -6.4516, -1.8535, 2.1192, -7.5116, 0.7935, 2.1192, -6.4516, 1.8535, 2.1192, -6.4516, -1.8535, 2.1192, -6.4516, -1.8535, 2.1192, -6.4516, 1.8535, 2.1192, -5.0309, 1.8535, 2.1192, -6.4516, -1.8535, 2.1192, -5.0309, -1.8535, -2.1192, -5.0309, -1.8535, 2.1192, -5.0309, 1.8535, 2.1192, -6.4516, 1.8535, -2.1192, -6.4516, 1.8535, -2.1192, -5.0309, 1.8535, -2.1192, -6.4516, 1.8535, -2.1192, -6.4516, -1.8535, -2.1192, -7.5116, -0.7935, -2.1192, -6.4516, -1.8535, -2.1192, -6.4516, 1.8535, 4.5112, -7.4837, 23.6245, 4.5112, -7.4837, 24.6224, 5.2091, -4.8791, 24.6224, 2.6046, -9.3904, 23.6245, 2.6046, -9.3904, 25.5245, 4.5112, -7.4837, 24.6224, 4.5112, -7.4837, 23.6245, 5.2091, -4.8791, 23.6245, 0, -4.8791, 23.6245, 0, 0.33, 23.6245, -2.6046, -0.3679, 23.6245, 0, -4.8791, 23.6245, 0, -10.0883, 23.6245, 0, -10.0883, 25.5245, 2.6046, -9.3904, 25.5245, 2.6046, -9.3904, 23.6245, 4.5112, -7.4837, 23.6245, 0, -4.8791, 23.6245, -2.6046, -9.3904, 23.6245, -2.6046, -9.3904, 25.5245, 0, -10.0883, 25.5245, -4.5112, -7.4837, 24.6224, -2.6046, -9.3904, 25.5245, -2.6046, -9.3904, 23.6245, 0, -10.0883, 23.6245, 2.6046, -9.3904, 23.6245, 0, -4.8791, 23.6245, 2.6046, -0.3679, 23.6245, 0, 0.33, 23.6245, 0, -4.8791, 23.6245, -5.2091, -4.8791, 23.6245, -5.2091, -4.8791, 24.6224, -4.5112, -7.4837, 24.6224, -2.6046, -9.3904, 23.6245, 0, -10.0883, 23.6245, 0, -4.8791, 23.6245, -4.5112, -2.2745, 23.6245, -4.5112, -2.2745, 24.6224, -5.2091, -4.8791, 24.6224, -2.6046, -0.3679, 23.6245, -2.6046, -0.3679, 24.6224, -4.5112, -2.2745, 24.6224, -4.5112, -7.4837, 23.6245, -2.6046, -9.3904, 23.6245, 0, -4.8791, 23.6245, 4.5112, -2.2745, 23.6245, 2.6046, -0.3679, 23.6245, 0, -4.8791, 23.6245, 0, 0.33, 23.6245, 0, 0.33, 24.6224, -2.6046, -0.3679, 24.6224, -5.2091, -4.8791, 23.6245, -4.5112, -7.4837, 23.6245, 0, -4.8791, 23.6245, 2.6046, -0.3679, 23.6245, 2.6046, -0.3679, 24.6224, 0, 0.33, 24.6224, 4.5112, -2.2745, 23.6245, 4.5112, -2.2745, 24.6224, 2.6046, -0.3679, 24.6224, -4.5112, -2.2745, 23.6245, -5.2091, -4.8791, 23.6245, 0, -4.8791, 23.6245, 5.2091, -4.8791, 23.6245, 4.5112, -2.2745, 23.6245, 0, -4.8791, 23.6245, 2.6046, -9.3904, 25.5245, 4.5112, -7.4837, 25.5245, 4.5112, -7.4837, 24.6224, -2.6046, -0.3679, 23.6245, -4.5112, -2.2745, 23.6245, 0, -4.8791, 23.6245, 5.2091, -4.8791, 23.6245, 5.2091, -4.8791, 24.6224, 4.5112, -2.2745, 24.6224, -4.5112, -7.4837, 25.5245, -2.6046, -9.3904, 25.5245, -4.5112, -7.4837, 24.6224, -2.6046, -9.3904, 25.5245, -4.5112, -7.4837, 25.5245, 4.5112, -7.4837, 25.5245, 0, -10.0883, 25.5245, -2.6046, -9.3904, 25.5245, 2.6046, -9.3904, 25.5245, 3.7, -9.2354, -13.6755, 3.7, -7.6812, 12.7361, -3.7, -7.6812, 12.7361, 1.595, -9.752, 12.7361, 3.7, -8.5515, 12.7361, 3.7, -10.1057, -13.6755, -1.595, -11.3062, -13.6755, -1.595, -9.752, 12.7361, 1.595, -9.752, 12.7361, 3.7, -7.6812, 12.7361, 3.7, -8.162, 12.7361, 3.7, -7.1467, 18.0732, 3.7, -8.162, 12.7361, 3.7, -7.6812, 12.7361, 3.7, -9.2354, -13.6755, 1.595, -11.3062, -13.6755, 3.7, -10.1057, -13.6755, -3.7, -10.1057, -13.6755, 1.595, -8.7368, 18.0732, 1.595, -9.752, 12.7361, -1.595, -9.752, 12.7361, 3.7, -9.7162, -13.6755, 3.7, -9.2354, -13.6755, -3.7, -9.2354, -13.6755, -3.7, -6.3231, 18.0732, -3.7, -7.6812, 12.7361, 3.7, -7.6812, 12.7361, -3.7, -8.5515, 12.7361, -3.7, -7.5363, 18.0732, -1.595, -8.7368, 18.0732, 1.595, -6.9567, 23.6533, 1.595, -8.7368, 18.0732, -1.595, -8.7368, 18.0732, -3.7, -10.1057, -13.6755, -3.7, -8.5515, 12.7361, -1.595, -9.752, 12.7361, -3.7, -3.6434, 23.6533, -3.7, -6.3231, 18.0732, 3.7, -6.3231, 18.0732, -3.7, -7.1467, 18.0732, -3.7, -8.162, 12.7361, -3.7, -7.6812, 12.7361, -3.7, -9.2354, -13.6755, -3.7, -7.6812, 12.7361, -3.7, -8.162, 12.7361, 1.595, -6.9567, 23.6533, 3.7, -5.7562, 23.6533, 3.7, -7.5363, 18.0732, 3.7, -6.3231, 18.0732, 3.7, -7.1467, 18.0732, 3.7, -5.3473, 23.6533, -3.7, -5.3473, 23.6533, -3.7, -7.1467, 18.0732, -3.7, -6.3231, 18.0732, -3.7, -7.5363, 18.0732, -3.7, -5.7562, 23.6533, -1.595, -6.9567, 23.6533, 1.595, -8.7368, 18.0732, 3.7, -7.5363, 18.0732, 3.7, -8.5515, 12.7361, 3.7, -9.7162, -13.6755, 3.7, -10.1057, -13.6755, 3.7, -8.5515, 12.7361, -3.7, -8.5515, 12.7361, -3.7, -10.1057, -13.6755, -3.7, -9.7162, -13.6755, -3.7, -9.7162, -13.6755, -3.7, -10.1057, -13.6755, 3.7, -10.1057, -13.6755, -3.7, -5.7562, 23.6533, -3.7, -7.5363, 18.0732, -3.7, -7.1467, 18.0732, 3.7, -8.162, 12.7361, 3.7, -8.5515, 12.7361, 3.7, -7.5363, 18.0732, -3.7, -7.5363, 18.0732, -3.7, -8.5515, 12.7361, -3.7, -8.162, 12.7361, 3.7, -7.1467, 18.0732, 3.7, -7.5363, 18.0732, 3.7, -5.7562, 23.6533, 13.7888, 4.8061, 24.5304, 13.7888, 4.8061, 25.5304, -13.7888, 4.8061, 25.5304, 9.8438, -7.3809, 24.5304, 9.8438, -7.3809, 25.5304, 13.7888, 4.8061, 25.5304, -9.8438, -7.3809, 24.5304, -9.8438, -7.3809, 25.5304, 9.8438, -7.3809, 25.5304, -13.7888, 4.8061, 24.5304, -13.7888, 4.8061, 25.5304, -9.8438, -7.3809, 25.5304, 9.8438, -7.3809, 24.5304, 13.7888, 4.8061, 24.5304, -13.7888, 4.8061, 24.5304, 13.7888, 4.8061, 25.5304, 9.8438, -7.3809, 25.5304, -9.8438, -7.3809, 25.5304, -24.2399, -3.4464, 4.807, -27.8653, -3.4464, 4.1052, -27.8653, -0.4095, 4.807, -27.8653, -0.4095, -4.807, -27.8653, -3.4464, -4.1052, -24.2399, -3.4464, -4.1052, -27.8653, -3.4464, 4.1052, -24.2399, -3.4464, 4.807, -24.2399, -3.4464, -4.1052, -27.8653, -0.4095, -4.807, -27.8653, -0.4095, 4.807, -27.8653, -3.4464, 4.1052, 2.4941, -6.9984, -1.9111, 2.4941, -6.9984, 1.9111, -2.4941, -6.9984, 1.9111, 2.4941, -8.6338, 1.9111, 2.4941, -6.9984, 1.9111, 2.4941, -6.9984, -1.9111, 2.4941, -6.9984, 1.9111, 2.4941, -8.6338, 1.9111, -2.4941, -8.6338, 1.9111, -2.4941, -6.9984, -1.9111, -2.4941, -6.9984, 1.9111, -2.4941, -8.6338, 1.9111, 2.4941, -8.9008, -1.9111, 2.4941, -6.9984, -1.9111, -2.4941, -6.9984, -1.9111, -15.5534, -4.6669, 9.9736, -16.3594, -4.4095, 9.9736, -15.8108, -3.6485, 9.9736, -17.9339, -4.4095, 9.9736, -18.7363, -4.6669, 9.9736, -18.479, -3.6485, 9.9736, -15.5534, -4.6669, 9.9736, -18.7363, -4.6669, 9.9736, -16.3594, -4.4095, 9.9736, 26.36, 0.4091, -15.21, -26.36, 0.4091, 15.21, -26.36, 0.4091, -15.21, 27.9, -0.4318, -16.75, 27.9, 0.6363, 16.75, 27.9, 0.6363, -16.75, -19.89, -5.8309, -8.74, 19.89, -5.8309, 8.74, 19.89, -5.8309, -8.74, -27.9, 0.6363, -16.75, -27.9, -0.4318, 16.75, -27.9, -0.4318, -16.75, 27.9, -0.4318, -16.75, -27.9, 0.6363, -16.75, -27.9, -0.4318, -16.75, 27.9, 0.6363, 16.75, -27.9, -0.4318, 16.75, -27.9, 0.6363, 16.75, 26.54, 0.6363, 15.39, -27.9, 0.6363, 16.75, -26.54, 0.6363, 15.39, 26.54, 0.6363, -15.39, 27.9, 0.6363, 16.75, 26.54, 0.6363, 15.39, -26.54, 0.6363, -15.39, 27.9, 0.6363, -16.75, 26.54, 0.6363, -15.39, -26.54, 0.6363, 15.39, -27.9, 0.6363, -16.75, -26.54, 0.6363, -15.39, 26.36, 0.4091, 15.21, -26.54, 0.6363, 15.39, -26.36, 0.4091, 15.21, 26.36, 0.4091, -15.21, 26.54, 0.6363, 15.39, 26.36, 0.4091, 15.21, -26.36, 0.4091, -15.21, 26.54, 0.6363, -15.39, 26.36, 0.4091, -15.21, -26.36, 0.4091, 15.21, -26.54, 0.6363, -15.39, -26.36, 0.4091, -15.21, -27.12, -2.238, -15.97, -27.9, -0.4318, 16.75, -27.12, -2.238, 15.97, 27.12, -2.238, -15.97, -27.9, -0.4318, -16.75, -27.12, -2.238, -15.97, 27.12, -2.238, 15.97, 27.9, -0.4318, -16.75, 27.12, -2.238, -15.97, -20.09, -5.3499, -8.94, -27.12, -2.238, 15.97, -20.09, -5.3499, 8.94, 20.09, -5.3499, -8.94, -27.12, -2.238, -15.97, -20.09, -5.3499, -8.94, 20.09, -5.3499, 8.94, 27.12, -2.238, -15.97, 20.09, -5.3499, -8.94, 25.6991, -2.238, 15.97, -27.9, -0.4318, 16.75, 27.9, -0.4318, 16.75, -20.09, -5.3499, 8.94, -25.6991, -2.238, 15.97, -19.645, -4.9411, 9.8636, 19.645, -4.9411, 9.8636, -20.09, -5.3499, 8.94, -19.645, -4.9411, 9.8636, 25.6991, -2.238, 15.97, 20.09, -5.3499, 8.94, 19.645, -4.9411, 9.8636, -25.6991, -2.238, 15.97, 19.645, -2.238, 9.8636, -19.645, -2.238, 9.8636, -19.89, -5.8309, 8.74, 20.09, -5.3499, 8.94, 19.89, -5.8309, 8.74, -19.89, -5.8309, -8.74, -20.09, -5.3499, 8.94, -19.89, -5.8309, 8.74, 19.89, -5.8309, -8.74, -20.09, -5.3499, -8.94, -19.89, -5.8309, -8.74, 19.89, -5.8309, 8.74, 20.09, -5.3499, -8.94, 19.89, -5.8309, -8.74, -15.5534, -4.6669, 9.8636, -19.645, -4.9411, 9.8636, -18.7363, -4.6669, 9.8636, -15.5534, -2.5122, 9.8636, 19.645, -4.9411, 9.8636, -15.5534, -4.6669, 9.8636, -19.645, -2.238, 9.8636, -15.5534, -2.5122, 9.8636, -18.7363, -2.5122, 9.8636, -18.7363, -4.6669, 9.8636, -19.645, -2.238, 9.8636, -18.7363, -2.5122, 9.8636, -15.5534, -4.6669, 9.9736, -18.7363, -4.6669, 9.8636, -18.7363, -4.6669, 9.9736, -15.5534, -2.5122, 9.8636, -15.5534, -4.6669, 9.9736, -15.5534, -2.5122, 9.9736, -18.7363, -2.5122, 9.9736, -15.5534, -2.5122, 9.8636, -15.5534, -2.5122, 9.9736, -18.7363, -4.6669, 9.9736, -18.7363, -2.5122, 9.8636, -18.7363, -2.5122, 9.9736, -18.7363, -2.5122, 9.9736, -15.8108, -2.7696, 9.9736, -18.479, -2.7696, 9.9736, -18.479, -2.7696, 9.035, -16.3594, -4.4095, 9.035, -17.9339, -4.4095, 9.035, -18.479, -3.6485, 9.9736, -18.7363, -2.5122, 9.9736, -18.479, -2.7696, 9.9736, -15.5534, -2.5122, 9.9736, -15.8108, -3.6485, 9.9736, -15.8108, -2.7696, 9.9736, -15.8108, -2.7696, 9.035, -15.8108, -3.6485, 9.9736, -15.8108, -3.6485, 9.035, -15.8108, -3.6485, 9.035, -16.3594, -4.4095, 9.9736, -16.3594, -4.4095, 9.035, -18.479, -2.7696, 9.035, -15.8108, -2.7696, 9.9736, -15.8108, -2.7696, 9.035, -16.3594, -4.4095, 9.035, -17.9339, -4.4095, 9.9736, -17.9339, -4.4095, 9.035, -17.9339, -4.4095, 9.035, -18.479, -3.6485, 9.9736, -18.479, -3.6485, 9.035, -18.479, -3.6485, 9.035, -18.479, -2.7696, 9.9736, -18.479, -2.7696, 9.035, -17.7722, -3.0138, 9.0222, -17.9088, -3.0138, 9.6222, -17.9088, -3.0138, 9.0222, -17.7722, -3.6138, 9.0222, -17.7722, -3.0138, 9.6222, -17.7722, -3.0138, 9.0222, -17.9088, -3.6138, 9.0222, -17.7722, -3.6138, 9.6222, -17.7722, -3.6138, 9.0222, -17.9088, -3.0138, 9.0222, -17.9088, -3.6138, 9.6222, -17.9088, -3.6138, 9.0222, -17.7722, -3.0138, 9.6222, -17.9088, -3.6138, 9.6222, -17.9088, -3.0138, 9.6222, -16.428, -3.0138, 9.0222, -16.5646, -3.0138, 9.6222, -16.5646, -3.0138, 9.0222, -16.428, -3.6138, 9.0222, -16.428, -3.0138, 9.6222, -16.428, -3.0138, 9.0222, -16.5646, -3.6138, 9.0222, -16.428, -3.6138, 9.6222, -16.428, -3.6138, 9.0222, -16.5646, -3.0138, 9.0222, -16.5646, -3.6138, 9.6222, -16.5646, -3.6138, 9.0222, -16.428, -3.0138, 9.6222, -16.5646, -3.6138, 9.6222, -16.5646, -3.0138, 9.6222, -17.1073, -3.6896, 9.0222, -17.2439, -3.6896, 9.6222, -17.2439, -3.6896, 9.0222, -17.1073, -4.2896, 9.0222, -17.1073, -3.6896, 9.6222, -17.1073, -3.6896, 9.0222, -17.2439, -4.2896, 9.0222, -17.1073, -4.2896, 9.6222, -17.1073, -4.2896, 9.0222, -17.2439, -3.6896, 9.0222, -17.2439, -4.2896, 9.6222, -17.2439, -4.2896, 9.0222, -17.1073, -3.6896, 9.6222, -17.2439, -4.2896, 9.6222, -17.2439, -3.6896, 9.6222, 2.1192, -6.4516, 1.8535, -2.1192, -7.5116, 0.7935, -2.1192, -6.4516, 1.8535, -2.1192, -7.5116, -0.7935, 2.1192, -7.5116, 0.7935, 2.1192, -7.5116, -0.7935, 2.1192, -7.5116, -0.7935, -2.1192, -6.4516, -1.8535, -2.1192, -7.5116, -0.7935, 2.1192, -7.5116, 0.7935, 2.1192, -6.4516, -1.8535, 2.1192, -7.5116, -0.7935, 2.1192, -6.4516, -1.8535, 2.1192, -5.0309, 1.8535, 2.1192, -5.0309, -1.8535, 2.1192, -6.4516, -1.8535, -2.1192, -5.0309, -1.8535, -2.1192, -6.4516, -1.8535, 2.1192, -5.0309, 1.8535, -2.1192, -6.4516, 1.8535, -2.1192, -5.0309, 1.8535, -2.1192, -5.0309, 1.8535, -2.1192, -6.4516, -1.8535, -2.1192, -5.0309, -1.8535, -2.1192, -7.5116, -0.7935, -2.1192, -6.4516, 1.8535, -2.1192, -7.5116, 0.7935, 4.5112, -7.4837, 23.6245, 5.2091, -4.8791, 24.6224, 5.2091, -4.8791, 23.6245, 2.6046, -9.3904, 23.6245, 4.5112, -7.4837, 24.6224, 4.5112, -7.4837, 23.6245, 0, -10.0883, 23.6245, 2.6046, -9.3904, 25.5245, 2.6046, -9.3904, 23.6245, -2.6046, -9.3904, 23.6245, 0, -10.0883, 25.5245, 0, -10.0883, 23.6245, -4.5112, -7.4837, 24.6224, -2.6046, -9.3904, 23.6245, -4.5112, -7.4837, 23.6245, -5.2091, -4.8791, 23.6245, -4.5112, -7.4837, 24.6224, -4.5112, -7.4837, 23.6245, -4.5112, -2.2745, 23.6245, -5.2091, -4.8791, 24.6224, -5.2091, -4.8791, 23.6245, -2.6046, -0.3679, 23.6245, -4.5112, -2.2745, 24.6224, -4.5112, -2.2745, 23.6245, 0, 0.33, 23.6245, -2.6046, -0.3679, 24.6224, -2.6046, -0.3679, 23.6245, 2.6046, -0.3679, 23.6245, 0, 0.33, 24.6224, 0, 0.33, 23.6245, 4.5112, -2.2745, 23.6245, 2.6046, -0.3679, 24.6224, 2.6046, -0.3679, 23.6245, 5.2091, -4.8791, 23.6245, 4.5112, -2.2745, 24.6224, 4.5112, -2.2745, 23.6245, -2.6046, -9.3904, 25.5245, 4.5112, -7.4837, 25.5245, 2.6046, -9.3904, 25.5245, 3.7, -9.2354, -13.6755, -3.7, -7.6812, 12.7361, -3.7, -9.2354, -13.6755, 1.595, -9.752, 12.7361, 3.7, -10.1057, -13.6755, 1.595, -11.3062, -13.6755, -1.595, -11.3062, -13.6755, 1.595, -9.752, 12.7361, 1.595, -11.3062, -13.6755, 3.7, -7.6812, 12.7361, 3.7, -7.1467, 18.0732, 3.7, -6.3231, 18.0732, 3.7, -8.162, 12.7361, 3.7, -9.2354, -13.6755, 3.7, -9.7162, -13.6755, 1.595, -11.3062, -13.6755, -3.7, -10.1057, -13.6755, -1.595, -11.3062, -13.6755, 1.595, -8.7368, 18.0732, -1.595, -9.752, 12.7361, -1.595, -8.7368, 18.0732, 3.7, -9.7162, -13.6755, -3.7, -9.2354, -13.6755, -3.7, -9.7162, -13.6755, -3.7, -6.3231, 18.0732, 3.7, -7.6812, 12.7361, 3.7, -6.3231, 18.0732, -3.7, -8.5515, 12.7361, -1.595, -8.7368, 18.0732, -1.595, -9.752, 12.7361, 1.595, -6.9567, 23.6533, -1.595, -8.7368, 18.0732, -1.595, -6.9567, 23.6533, -3.7, -10.1057, -13.6755, -1.595, -9.752, 12.7361, -1.595, -11.3062, -13.6755, -3.7, -3.6434, 23.6533, 3.7, -6.3231, 18.0732, 3.7, -3.6434, 23.6533, -3.7, -7.1467, 18.0732, -3.7, -7.6812, 12.7361, -3.7, -6.3231, 18.0732, -3.7, -9.2354, -13.6755, -3.7, -8.162, 12.7361, -3.7, -9.7162, -13.6755, 1.595, -6.9567, 23.6533, 3.7, -7.5363, 18.0732, 1.595, -8.7368, 18.0732, 3.7, -6.3231, 18.0732, 3.7, -5.3473, 23.6533, 3.7, -3.6434, 23.6533, -3.7, -5.3473, 23.6533, -3.7, -6.3231, 18.0732, -3.7, -3.6434, 23.6533, -3.7, -7.5363, 18.0732, -1.595, -6.9567, 23.6533, -1.595, -8.7368, 18.0732, 1.595, -8.7368, 18.0732, 3.7, -8.5515, 12.7361, 1.595, -9.752, 12.7361, 3.7, -9.7162, -13.6755, 3.7, -8.5515, 12.7361, 3.7, -8.162, 12.7361, -3.7, -8.5515, 12.7361, -3.7, -9.7162, -13.6755, -3.7, -8.162, 12.7361, -3.7, -9.7162, -13.6755, 3.7, -10.1057, -13.6755, 3.7, -9.7162, -13.6755, -3.7, -5.7562, 23.6533, -3.7, -7.1467, 18.0732, -3.7, -5.3473, 23.6533, 3.7, -8.162, 12.7361, 3.7, -7.5363, 18.0732, 3.7, -7.1467, 18.0732, -3.7, -7.5363, 18.0732, -3.7, -8.162, 12.7361, -3.7, -7.1467, 18.0732, 3.7, -7.1467, 18.0732, 3.7, -5.7562, 23.6533, 3.7, -5.3473, 23.6533, 13.7888, 4.8061, 24.5304, -13.7888, 4.8061, 25.5304, -13.7888, 4.8061, 24.5304, 9.8438, -7.3809, 24.5304, 13.7888, 4.8061, 25.5304, 13.7888, 4.8061, 24.5304, -9.8438, -7.3809, 24.5304, 9.8438, -7.3809, 25.5304, 9.8438, -7.3809, 24.5304, -13.7888, 4.8061, 24.5304, -9.8438, -7.3809, 25.5304, -9.8438, -7.3809, 24.5304, 9.8438, -7.3809, 24.5304, -13.7888, 4.8061, 24.5304, -9.8438, -7.3809, 24.5304, 13.7888, 4.8061, 25.5304, -9.8438, -7.3809, 25.5304, -13.7888, 4.8061, 25.5304, -27.8653, -3.4464, 4.1052, -24.2399, -3.4464, -4.1052, -27.8653, -3.4464, -4.1052, -27.8653, -0.4095, -4.807, -27.8653, -3.4464, 4.1052, -27.8653, -3.4464, -4.1052, 2.4941, -6.9984, -1.9111, -2.4941, -6.9984, 1.9111, -2.4941, -6.9984, -1.9111, 2.4941, -8.6338, 1.9111, 2.4941, -6.9984, -1.9111, 2.4941, -8.9008, -1.9111, 2.4941, -6.9984, 1.9111, -2.4941, -8.6338, 1.9111, -2.4941, -6.9984, 1.9111, -2.4941, -6.9984, -1.9111, -2.4941, -8.6338, 1.9111, -2.4941, -8.9008, -1.9111, 2.4941, -8.9008, -1.9111, -2.4941, -6.9984, -1.9111, -2.4941, -8.9008, -1.9111, -5.8904, -2.2739, 15.1602, -5.8904, -2.2739, 10.4582, -14.8683, -2.2739, 10.4582, 3.6025, 0.6652, 15.5003, 3.6025, 0.6652, 16.6078, -3.6025, 0.6652, 16.6078, 16.411, -3.3268, 9.8964, 18.021, -3.3268, 9.8964, 18.021, -3.8028, 9.8964, -27.9133, -1.4835, 2.1321, -27.9133, -1.4835, 2.8821, -27.9133, -2.2335, 2.8821, -27.9133, -1.4835, -3.7763, -27.9133, -1.4835, -2.2763, -27.9133, -2.2335, -2.2763, 13.8209, -3.3268, 9.8964, 15.431, -3.3268, 9.8964, 15.431, -3.8028, 9.8964, 11.4502, -3.3268, 9.8964, 13.0602, -3.3268, 9.8964, 13.0602, -3.8028, 9.8964, 9.0001, -3.3268, 9.8964, 10.6101, -3.3268, 9.8964, 10.6101, -3.8028, 9.8964, -27.9133, -1.4835, -1.7131, -27.9133, -1.4835, -0.2131, -27.9133, -2.2335, -0.2131, -27.9133, -1.4835, 0.2376, -27.9133, -1.4835, 1.7376, -27.9133, -2.2335, 1.7376, -27.9133, -1.4835, 3.2697, -27.9133, -1.4835, 4.0197, -27.9133, -2.2335, 4.0197, -5.8904, -2.2739, 15.1602, -14.8683, -2.2739, 10.4582, -14.8683, -2.2739, 15.1602, 3.6025, 0.6652, 15.5003, -3.6025, 0.6652, 16.6078, -3.6025, 0.6652, 15.5003, 16.411, -3.3268, 9.8964, 18.021, -3.8028, 9.8964, 16.411, -3.8028, 9.8964, -27.9133, -1.4835, 2.1321, -27.9133, -2.2335, 2.8821, -27.9133, -2.2335, 2.1321, -27.9133, -1.4835, -3.7763, -27.9133, -2.2335, -2.2763, -27.9133, -2.2335, -3.7763, 13.8209, -3.3268, 9.8964, 15.431, -3.8028, 9.8964, 13.8209, -3.8028, 9.8964, 11.4502, -3.3268, 9.8964, 13.0602, -3.8028, 9.8964, 11.4502, -3.8028, 9.8964, 9.0001, -3.3268, 9.8964, 10.6101, -3.8028, 9.8964, 9.0001, -3.8028, 9.8964, -27.9133, -1.4835, -1.7131, -27.9133, -2.2335, -0.2131, -27.9133, -2.2335, -1.7131, -27.9133, -1.4835, 0.2376, -27.9133, -2.2335, 1.7376, -27.9133, -2.2335, 0.2376, -27.9133, -1.4835, 3.2697, -27.9133, -2.2335, 4.0197, -27.9133, -2.2335, 3.2697 )

[node name="researchroomfinal" instance=ExtResource( 1 )]

[node name="StaticBody" type="StaticBody" parent="Plane" index="0"]

[node name="CollisionShape" type="CollisionShape" parent="Plane/StaticBody" index="0"]
shape = SubResource( 1 )

[node name="StaticBody" type="StaticBody" parent="Plane001" index="0"]

[node name="CollisionShape" type="CollisionShape" parent="Plane001/StaticBody" index="0"]
shape = SubResource( 2 )

[node name="StaticBody" type="StaticBody" parent="Cube002" index="0"]

[node name="CollisionShape" type="CollisionShape" parent="Cube002/StaticBody" index="0"]
shape = SubResource( 3 )

[node name="StaticBody" type="StaticBody" parent="Plane002" index="0"]

[node name="CollisionShape" type="CollisionShape" parent="Plane002/StaticBody" index="0"]
shape = SubResource( 4 )

[node name="StaticBody" type="StaticBody" parent="Plane003" index="0"]
script = ExtResource( 4 )

[node name="CollisionShape" type="CollisionShape" parent="Plane003/StaticBody" index="0"]
shape = SubResource( 5 )

[node name="StaticBody" type="StaticBody" parent="Plane004" index="0"]

[node name="CollisionShape" type="CollisionShape" parent="Plane004/StaticBody" index="0"]
shape = SubResource( 6 )

[node name="StaticBody" type="StaticBody" parent="Plane005" index="0"]

[node name="CollisionShape" type="CollisionShape" parent="Plane005/StaticBody" index="0"]
shape = SubResource( 7 )

[node name="StaticBody" type="StaticBody" parent="Plane006" index="0"]

[node name="CollisionShape" type="CollisionShape" parent="Plane006/StaticBody" index="0"]
shape = SubResource( 8 )

[node name="Monitor_01" parent="." index="14"]
material/0 = SubResource( 9 )
material/1 = SubResource( 10 )

[node name="Monitor_01001" parent="." index="16"]
material/0 = SubResource( 11 )

[node name="StaticBody" type="StaticBody" parent="Monitor_01001" index="0"]

[node name="CollisionShape" type="CollisionShape" parent="Monitor_01001/StaticBody" index="0"]
shape = SubResource( 12 )
