[gd_scene load_steps=5 format=2]

[ext_resource path="res://observation_task/leaf/source/lambert2.material" type="Material" id=1]
[ext_resource path="res://observation_task/leaf.gd" type="Script" id=2]


[sub_resource type="ArrayMesh" id=1]
surfaces/0 = {
"aabb": AABB( 0, 0, -0.01, 0.01, 0.00162596, 0.01001 ),
"array_data": PoolByteArray( 0, 0, 0, 0, 0, 0, 0, 0, 0, 0, 0, 0, 251, 126, 5, 0, 125, 4, 18, 129, 156, 43, 156, 59, 131, 173, 155, 59, 135, 195, 214, 57, 225, 111, 169, 185, 237, 125, 0, 0, 124, 18, 15, 129, 83, 55, 233, 58, 9, 215, 163, 59, 169, 121, 226, 57, 9, 215, 163, 187, 244, 125, 12, 0, 126, 10, 11, 129, 0, 56, 0, 56, 131, 173, 155, 59, 135, 195, 214, 57, 225, 111, 169, 185, 237, 125, 0, 0, 124, 18, 15, 129, 83, 55, 233, 58, 56, 102, 250, 59, 115, 75, 149, 58, 170, 106, 31, 187, 225, 123, 255, 0, 122, 31, 3, 129, 104, 57, 140, 57, 70, 194, 31, 60, 48, 30, 213, 58, 9, 110, 174, 187, 225, 122, 249, 0, 123, 31, 0, 129, 196, 58, 157, 55, 9, 215, 163, 59, 169, 121, 226, 57, 9, 215, 163, 187, 244, 125, 12, 0, 126, 10, 11, 129, 0, 56, 0, 56, 51, 125, 13, 58, 158, 194, 214, 57, 187, 27, 145, 187, 1, 125, 19, 0, 125, 252, 18, 129, 113, 48, 178, 56, 9, 215, 163, 59, 169, 121, 226, 57, 9, 215, 163, 187, 244, 125, 12, 0, 126, 10, 11, 129, 0, 56, 0, 56, 176, 134, 181, 59, 245, 29, 213, 58, 98, 121, 26, 188, 10, 121, 34, 0, 125, 241, 15, 129, 60, 56, 155, 49, 252, 155, 45, 59, 57, 75, 149, 58, 116, 212, 239, 187, 3, 122, 33, 0, 125, 247, 20, 129, 242, 52, 232, 53, 9, 215, 163, 59, 169, 121, 226, 57, 9, 215, 163, 187, 244, 125, 12, 0, 126, 10, 11, 129, 0, 56, 0, 56, 70, 194, 31, 60, 48, 30, 213, 58, 9, 110, 174, 187, 225, 122, 249, 0, 123, 31, 0, 129, 196, 58, 157, 55, 9, 215, 35, 60, 111, 48, 167, 58, 9, 215, 35, 188, 245, 126, 9, 0, 126, 11, 255, 129, 44, 59, 124, 48, 9, 215, 163, 59, 169, 121, 226, 57, 9, 215, 163, 187, 244, 125, 12, 0, 126, 10, 11, 129, 0, 56, 0, 56, 9, 215, 35, 60, 111, 48, 167, 58, 9, 215, 35, 188, 245, 126, 9, 0, 126, 11, 255, 129, 44, 59, 124, 48, 176, 134, 181, 59, 245, 29, 213, 58, 98, 121, 26, 188, 10, 121, 34, 0, 125, 241, 15, 129, 60, 56, 155, 49, 0, 0, 0, 0, 0, 0, 0, 0, 0, 0, 0, 0, 251, 126, 5, 0, 125, 4, 18, 129, 156, 43, 156, 59, 9, 215, 163, 59, 169, 121, 226, 57, 9, 215, 163, 187, 244, 125, 12, 0, 126, 10, 11, 129, 0, 56, 0, 56, 51, 125, 13, 58, 158, 194, 214, 57, 187, 27, 145, 187, 1, 125, 19, 0, 125, 252, 18, 129, 113, 48, 178, 56 ),
"array_index_data": PoolByteArray( 2, 0, 1, 0, 0, 0, 6, 0, 4, 0, 3, 0, 6, 0, 5, 0, 4, 0, 10, 0, 8, 0, 7, 0, 10, 0, 9, 0, 8, 0, 13, 0, 12, 0, 11, 0, 16, 0, 15, 0, 14, 0, 19, 0, 18, 0, 17, 0 ),
"blend_shape_data": [  ],
"format": 97559,
"index_count": 24,
"material": ExtResource( 1 ),
"name": "pPlane1",
"primitive": 4,
"skeleton_aabb": [  ],
"vertex_count": 20
}

[sub_resource type="CylinderShape" id=2]
radius = 0.0726307
height = 0.0204997

[node name="SM_Leafarray4" type="Area"]
collision_layer = 4
collision_mask = 2
script = ExtResource( 2 )

[node name="pPlane6" type="MeshInstance" parent="."]
transform = Transform( -0.809017, 0, -0.587785, 0, 1, 0, 0.587785, 0, -0.809017, 0, 0, 0 )
mesh = SubResource( 1 )
material/0 = null

[node name="pPlane4" type="MeshInstance" parent="."]
transform = Transform( -0.809017, 0, 0.587785, 0, 1, 0, -0.587785, 0, -0.809017, 0, 0, 0 )
mesh = SubResource( 1 )
material/0 = null

[node name="pPlane3" type="MeshInstance" parent="."]
transform = Transform( 0.309017, 0, 0.951057, 0, 1, 0, -0.951057, 0, 0.309017, 0, 0, 0 )
mesh = SubResource( 1 )
material/0 = null

[node name="pPlane2" type="MeshInstance" parent="."]
mesh = SubResource( 1 )
material/0 = null

[node name="pPlane7" type="MeshInstance" parent="."]
transform = Transform( 0.309017, 0, -0.951057, 0, 1, 0, 0.951057, 0, 0.309017, 0, 0, 0 )
mesh = SubResource( 1 )
material/0 = null

[node name="CollisionShape" type="CollisionShape" parent="."]
transform = Transform( 1, 0, 0, 0, 1, 0, 0, 0, 1, -0.512989, -0.882856, -0.67699 )
shape = SubResource( 2 )
[connection signal="input_event" from="." to="." method="_on_SM_Leafarray4_input_event"]
