[gd_scene load_steps=6 format=2]

[ext_resource path="res://Fonts/more fonts/KiriFont.ttf" type="DynamicFontData" id=1]
[ext_resource path="res://Fonts/more fonts/Sniglet-Regular.ttf" type="DynamicFontData" id=2]
[ext_resource path="res://observation_task/lose.gd" type="Script" id=3]


[sub_resource type="DynamicFont" id=1]
size = 60
outline_size = 5
outline_color = Color( 0.545098, 0.792157, 0.054902, 1 )
font_data = ExtResource( 1 )

[sub_resource type="DynamicFont" id=2]
size = 40
outline_size = 3
outline_color = Color( 0.952941, 0.0627451, 0.690196, 1 )
font_data = ExtResource( 2 )

[node name="lose" type="Control"]
anchor_right = 1.0
anchor_bottom = 1.0
script = ExtResource( 3 )
__meta__ = {
"_edit_use_anchors_": false
}

[node name="ColorRect" type="ColorRect" parent="."]
margin_right = 1024.0
margin_bottom = 601.0
color = Color( 0.972549, 0.0745098, 0.0745098, 1 )
__meta__ = {
"_edit_use_anchors_": false
}

[node name="Label" type="Label" parent="."]
margin_left = 209.108
margin_top = 120.64
margin_right = 1068.11
margin_bottom = 371.64
custom_fonts/font = SubResource( 1 )
custom_colors/font_color = Color( 0.945098, 0.890196, 0.0431373, 1 )
text = "WRONG CHOICE

  YOU LOSE!!"

[node name="Button" type="Button" parent="."]
margin_left = 345.068
margin_top = 420.021
margin_right = 588.068
margin_bottom = 539.021
custom_fonts/font = SubResource( 2 )
custom_colors/font_color_disabled = Color( 0.0901961, 0.0745098, 0.0588235, 1 )
custom_colors/font_color = Color( 0.878431, 0.564706, 0.262745, 1 )
custom_colors/font_color_hover = Color( 0, 0, 0, 1 )
text = "EXIT"
flat = true
__meta__ = {
"_edit_use_anchors_": false
}
[connection signal="pressed" from="Button" to="." method="_on_Button_pressed"]
