[gd_scene load_steps=4 format=2]

[ext_resource path="res://Storage_task/assets/chest box/ikea-chest-box/source/pipe_frame.material" type="Material" id=1]
[ext_resource path="res://Storage_task/assets/chest box/ikea-chest-box/source/chest_box.material" type="Material" id=2]
[ext_resource path="res://Storage_task/assets/chest box/ikea-chest-box/source/chest_box.fbx" type="PackedScene" id=3]


[node name="chest_box" instance=ExtResource( 3 )]

[node name="Chest_Box2" parent="." index="0"]
material/0 = ExtResource( 1 )
material/1 = ExtResource( 2 )
