[gd_scene load_steps=4 format=2]

[ext_resource path="res://Storage_task/assets/mask/gas-mask-kaiman/source/Main_Outer.material" type="Material" id=1]
[ext_resource path="res://Storage_task/assets/mask/gas-mask-kaiman/source/frontBlades.material" type="Material" id=2]
[ext_resource path="res://Storage_task/assets/mask/gas-mask-kaiman/source/GasMask_whole.fbx" type="PackedScene" id=3]


[node name="GasMask_whole" instance=ExtResource( 3 )]

[node name="mainMask002" parent="." index="0"]
material/0 = ExtResource( 1 )

[node name="FrontCupBlades002" parent="mainMask002/OuterCup002/FrontCup003" index="0"]
material/0 = ExtResource( 2 )
