[gd_scene load_steps=3 format=2]

[ext_resource path="res://Storage_task/assets/tools/tools-pack-free/source/Tools.material" type="Material" id=1]
[ext_resource path="res://Storage_task/assets/tools/tools-pack-free/source/ToolsPack.fbx" type="PackedScene" id=2]


[node name="ToolsPack" instance=ExtResource( 2 )]

[node name="turnscrew3" parent="." index="0"]
transform = Transform( 100, 0, 0, 0, -1.19209e-05, 100, 0, -100, -1.19209e-05, -0.165255, -0.00777557, 0 )
material/0 = ExtResource( 1 )
