[gd_scene load_steps=6 format=2]

[ext_resource path="res://extras/bullet.gd" type="Script" id=1]


[sub_resource type="CapsuleShape" id=1]
radius = 0.05
height = 0.1

[sub_resource type="CapsuleMesh" id=2]
radius = 0.05
mid_height = 0.1

[sub_resource type="SpatialMaterial" id=3]
albedo_color = Color( 0.819608, 0.0901961, 0.0901961, 1 )

[sub_resource type="CapsuleShape" id=4]
radius = 0.06
height = 0.12

[node name="bullet" type="RigidBody"]
collision_layer = 0
mass = 2.2
gravity_scale = 0.1
script = ExtResource( 1 )

[node name="CollisionShape" type="CollisionShape" parent="."]
shape = SubResource( 1 )

[node name="MeshInstance" type="MeshInstance" parent="."]
mesh = SubResource( 2 )
material/0 = SubResource( 3 )

[node name="Area" type="Area" parent="."]
collision_layer = 0

[node name="CollisionShape" type="CollisionShape" parent="Area"]
shape = SubResource( 4 )
[connection signal="body_entered" from="Area" to="." method="_on_Area_body_entered"]
