[gd_resource type="Environment" load_steps=2 format=2]

[sub_resource type="ProceduralSky" id=1]
sky_top_color = Color( 0.155869, 0.627075, 0.886719, 1 )

[resource]
background_sky = SubResource( 1 )
background_color = Color( 1, 1, 1, 1 )
background_energy = 0.0
ambient_light_color = Color( 0.823529, 0.823529, 0.823529, 1 )
ambient_light_energy = 0.0
ambient_light_sky_contribution = 0.0
tonemap_exposure = 0.52
tonemap_white = 3.38
